<?xml version="1.0"?>
<!DOCTYPE svg PUBLIC '-//W3C//DTD SVG 1.0//EN'
          'http://www.w3.org/TR/2001/REC-SVG-20010904/DTD/svg10.dtd'>
<svg xmlns:xlink="http://www.w3.org/1999/xlink" style="fill-opacity:1; color-rendering:auto; color-interpolation:auto; text-rendering:auto; stroke:black; stroke-linecap:square; stroke-miterlimit:10; shape-rendering:auto; stroke-opacity:1; fill:black; stroke-dasharray:none; font-weight:normal; stroke-width:1; font-family:'Dialog'; font-style:normal; stroke-linejoin:miter; font-size:12px; stroke-dashoffset:0; image-rendering:auto;" width="1920" height="926" xmlns="http://www.w3.org/2000/svg"
><!--Generated by the Batik Graphics2D SVG Generator--><defs id="genericDefs"
  /><g
  ><defs id="defs1"
    ><clipPath clipPathUnits="userSpaceOnUse" id="clipPath1"
      ><path d="M0 0 L1920 0 L1920 926 L0 926 L0 0 Z"
      /></clipPath
      ><font horiz-adv-x="75.0" id="font1"
      ><font-face ascent="100.53711" descent="21.972656" units-per-em="100" style="font-style:normal; font-family:Dialog; font-weight:normal;"
        /><missing-glyph horiz-adv-x="75.0" d="M12.5 0 L12.5 62.5 L62.5 62.5 L62.5 0 L12.5 0 ZM14.0625 1.5625 L60.9375 1.5625 L60.9375 60.9375 L14.0625 60.9375 L14.0625 1.5625 Z"
        /><glyph unicode="1" horiz-adv-x="55.615234" d="M37.25 0 L28.4688 0 L28.4688 56 Q25.2969 52.9844 20.1406 49.9531 Q14.9844 46.9219 10.8906 45.4062 L10.8906 53.9062 Q18.2656 57.375 23.7812 62.3047 Q29.2969 67.2344 31.5938 71.875 L37.25 71.875 L37.25 0 Z"
        /><glyph unicode="." horiz-adv-x="27.783203" d="M9.0781 0 L9.0781 10.0156 L19.0938 10.0156 L19.0938 0 L9.0781 0 Z"
        /><glyph unicode="0" horiz-adv-x="55.615234" d="M4.1562 35.2969 Q4.1562 48 6.7656 55.7422 Q9.375 63.4844 14.5234 67.6797 Q19.6719 71.875 27.4844 71.875 Q33.25 71.875 37.5938 69.5547 Q41.9375 67.2344 44.7734 62.8672 Q47.6094 58.5 49.2188 52.2266 Q50.8281 45.9531 50.8281 35.2969 Q50.8281 22.7031 48.2422 14.9688 Q45.6562 7.2344 40.5078 3.0078 Q35.3594 -1.2188 27.4844 -1.2188 Q17.1406 -1.2188 11.2344 6.2031 Q4.1562 15.1406 4.1562 35.2969 ZM13.1875 35.2969 Q13.1875 17.6719 17.3125 11.8359 Q21.4375 6 27.4844 6 Q33.5469 6 37.6719 11.8594 Q41.7969 17.7188 41.7969 35.2969 Q41.7969 52.9844 37.6719 58.7891 Q33.5469 64.5938 27.3906 64.5938 Q21.3438 64.5938 17.7188 59.4688 Q13.1875 52.9375 13.1875 35.2969 Z"
        /><glyph unicode="2" horiz-adv-x="55.615234" d="M50.3438 8.4531 L50.3438 0 L3.0312 0 Q2.9375 3.1719 4.0469 6.1094 Q5.8594 10.9375 9.8359 15.625 Q13.8125 20.3125 21.3438 26.4688 Q33.0156 36.0312 37.1172 41.625 Q41.2188 47.2188 41.2188 52.2031 Q41.2188 57.4219 37.4766 61.0078 Q33.7344 64.5938 27.7344 64.5938 Q21.3906 64.5938 17.5781 60.7891 Q13.7656 56.9844 13.7188 50.25 L4.6875 51.1719 Q5.6094 61.2812 11.6641 66.5781 Q17.7188 71.875 27.9375 71.875 Q38.2344 71.875 44.2422 66.1641 Q50.25 60.4531 50.25 52 Q50.25 47.7031 48.4922 43.5547 Q46.7344 39.4062 42.6562 34.8125 Q38.5781 30.2188 29.1094 22.2188 Q21.1875 15.5781 18.9453 13.2109 Q16.7031 10.8438 15.2344 8.4531 L50.3438 8.4531 Z"
        /><glyph unicode="3" horiz-adv-x="55.615234" d="M4.2031 18.8906 L12.9844 20.0625 Q14.5 12.5938 18.1406 9.2969 Q21.7812 6 27 6 Q33.2031 6 37.4766 10.2969 Q41.75 14.5938 41.75 20.9531 Q41.75 27 37.7969 30.9297 Q33.8438 34.8594 27.7344 34.8594 Q25.25 34.8594 21.5312 33.8906 L22.5156 41.6094 Q23.3906 41.5 23.9219 41.5 Q29.5469 41.5 34.0391 44.4297 Q38.5312 47.3594 38.5312 53.4688 Q38.5312 58.2969 35.2578 61.4766 Q31.9844 64.6562 26.8125 64.6562 Q21.6875 64.6562 18.2656 61.4297 Q14.8438 58.2031 13.875 51.7656 L5.0781 53.3281 Q6.6875 62.1562 12.3984 67.0156 Q18.1094 71.875 26.6094 71.875 Q32.4688 71.875 37.3984 69.3594 Q42.3281 66.8438 44.9453 62.5 Q47.5625 58.1562 47.5625 53.2656 Q47.5625 48.6406 45.0703 44.8281 Q42.5781 41.0156 37.7031 38.7656 Q44.0469 37.3125 47.5625 32.6953 Q51.0781 28.0781 51.0781 21.1406 Q51.0781 11.7656 44.2422 5.25 Q37.4062 -1.2656 26.9531 -1.2656 Q17.5312 -1.2656 11.3047 4.3516 Q5.0781 9.9688 4.2031 18.8906 Z"
        /><glyph unicode="4" horiz-adv-x="55.615234" d="M32.3281 0 L32.3281 17.1406 L1.2656 17.1406 L1.2656 25.2031 L33.9375 71.5781 L41.1094 71.5781 L41.1094 25.2031 L50.7812 25.2031 L50.7812 17.1406 L41.1094 17.1406 L41.1094 0 L32.3281 0 ZM32.3281 25.2031 L32.3281 57.4688 L9.9062 25.2031 L32.3281 25.2031 Z"
        /><glyph unicode="5" horiz-adv-x="55.615234" d="M4.1562 18.75 L13.375 19.5312 Q14.4062 12.7969 18.1406 9.3984 Q21.875 6 27.1562 6 Q33.5 6 37.8906 10.7891 Q42.2812 15.5781 42.2812 23.4844 Q42.2812 31 38.0625 35.3516 Q33.8438 39.7031 27 39.7031 Q22.75 39.7031 19.3359 37.7734 Q15.9219 35.8438 13.9688 32.7656 L5.7188 33.8438 L12.6406 70.6094 L48.25 70.6094 L48.25 62.2031 L19.6719 62.2031 L15.8281 42.9688 Q22.2656 47.4688 29.3438 47.4688 Q38.7188 47.4688 45.1641 40.9688 Q51.6094 34.4688 51.6094 24.2656 Q51.6094 14.5469 45.9531 7.4688 Q39.0625 -1.2188 27.1562 -1.2188 Q17.3906 -1.2188 11.2109 4.25 Q5.0312 9.7188 4.1562 18.75 Z"
        /><glyph unicode="6" horiz-adv-x="55.615234" d="M49.75 54.0469 L41.0156 53.375 Q39.8438 58.5469 37.7031 60.8906 Q34.125 64.6562 28.9062 64.6562 Q24.7031 64.6562 21.5312 62.3125 Q17.3906 59.2812 14.9922 53.4688 Q12.5938 47.6562 12.5 36.9219 Q15.6719 41.75 20.2656 44.0938 Q24.8594 46.4375 29.8906 46.4375 Q38.6719 46.4375 44.8516 39.9688 Q51.0312 33.5 51.0312 23.25 Q51.0312 16.5 48.125 10.7188 Q45.2188 4.9375 40.1406 1.8594 Q35.0625 -1.2188 28.6094 -1.2188 Q17.625 -1.2188 10.6953 6.8594 Q3.7656 14.9375 3.7656 33.5 Q3.7656 54.25 11.4219 63.6719 Q18.1094 71.875 29.4375 71.875 Q37.8906 71.875 43.2891 67.1406 Q48.6875 62.4062 49.75 54.0469 ZM13.875 23.1875 Q13.875 18.6562 15.7969 14.5078 Q17.7188 10.3594 21.1875 8.1797 Q24.6562 6 28.4688 6 Q34.0312 6 38.0391 10.4922 Q42.0469 14.9844 42.0469 22.7031 Q42.0469 30.125 38.0859 34.3984 Q34.125 38.6719 28.125 38.6719 Q22.1719 38.6719 18.0234 34.3984 Q13.875 30.125 13.875 23.1875 Z"
        /><glyph unicode="7" horiz-adv-x="55.615234" d="M4.7344 62.2031 L4.7344 70.6562 L51.0781 70.6562 L51.0781 63.8125 Q44.2344 56.5469 37.5234 44.4844 Q30.8125 32.4219 27.1562 19.6719 Q24.5156 10.6875 23.7812 0 L14.75 0 Q14.8906 8.4531 18.0625 20.4141 Q21.2344 32.375 27.1719 43.4844 Q33.1094 54.5938 39.7969 62.2031 L4.7344 62.2031 Z"
        /><glyph unicode="8" horiz-adv-x="55.615234" d="M17.6719 38.8125 Q12.2031 40.8281 9.5703 44.5391 Q6.9375 48.25 6.9375 53.4219 Q6.9375 61.2344 12.5547 66.5547 Q18.1719 71.875 27.4844 71.875 Q36.8594 71.875 42.5781 66.4297 Q48.2969 60.9844 48.2969 53.1719 Q48.2969 48.1875 45.6797 44.5078 Q43.0625 40.8281 37.75 38.8125 Q44.3438 36.6719 47.7812 31.8828 Q51.2188 27.0938 51.2188 20.4531 Q51.2188 11.2812 44.7266 5.0312 Q38.2344 -1.2188 27.6406 -1.2188 Q17.0469 -1.2188 10.5469 5.0547 Q4.0469 11.3281 4.0469 20.7031 Q4.0469 27.6875 7.5938 32.3984 Q11.1406 37.1094 17.6719 38.8125 ZM15.9219 53.7188 Q15.9219 48.6406 19.1953 45.4141 Q22.4688 42.1875 27.6875 42.1875 Q32.7656 42.1875 36.0156 45.3828 Q39.2656 48.5781 39.2656 53.2188 Q39.2656 58.0625 35.9141 61.3594 Q32.5625 64.6562 27.5938 64.6562 Q22.5625 64.6562 19.2422 61.4297 Q15.9219 58.2031 15.9219 53.7188 ZM13.0938 20.6562 Q13.0938 16.8906 14.875 13.375 Q16.6562 9.8594 20.1719 7.9297 Q23.6875 6 27.7344 6 Q34.0312 6 38.1328 10.0547 Q42.2344 14.1094 42.2344 20.3594 Q42.2344 26.7031 38.0156 30.8594 Q33.7969 35.0156 27.4375 35.0156 Q21.2344 35.0156 17.1641 30.9141 Q13.0938 26.8125 13.0938 20.6562 Z"
        /><glyph unicode="9" horiz-adv-x="55.615234" d="M5.4688 16.5469 L13.9219 17.3281 Q14.9844 11.375 18.0156 8.6875 Q21.0469 6 25.7812 6 Q29.8281 6 32.8828 7.8594 Q35.9375 9.7188 37.8906 12.8203 Q39.8438 15.9219 41.1641 21.1953 Q42.4844 26.4688 42.4844 31.9375 Q42.4844 32.5156 42.4375 33.6875 Q39.7969 29.5 35.2344 26.8828 Q30.6719 24.2656 25.3438 24.2656 Q16.4531 24.2656 10.3047 30.7109 Q4.1562 37.1562 4.1562 47.7031 Q4.1562 58.5938 10.5781 65.2344 Q17 71.875 26.6562 71.875 Q33.6406 71.875 39.4297 68.1172 Q45.2188 64.3594 48.2188 57.3984 Q51.2188 50.4375 51.2188 37.25 Q51.2188 23.5312 48.2422 15.4062 Q45.2656 7.2812 39.3828 3.0312 Q33.5 -1.2188 25.5938 -1.2188 Q17.1875 -1.2188 11.8672 3.4453 Q6.5469 8.1094 5.4688 16.5469 ZM41.4531 48.1406 Q41.4531 55.7188 37.4297 60.1562 Q33.4062 64.5938 27.7344 64.5938 Q21.875 64.5938 17.5312 59.8125 Q13.1875 55.0312 13.1875 47.4062 Q13.1875 40.5781 17.3125 36.3047 Q21.4375 32.0312 27.4844 32.0312 Q33.5938 32.0312 37.5234 36.3047 Q41.4531 40.5781 41.4531 48.1406 Z"
        /><glyph unicode="o" horiz-adv-x="55.615234" d="M3.3281 25.9219 Q3.3281 40.3281 11.3281 47.2656 Q18.0156 53.0312 27.6406 53.0312 Q38.3281 53.0312 45.1172 46.0234 Q51.9062 39.0156 51.9062 26.6562 Q51.9062 16.6562 48.9062 10.9141 Q45.9062 5.1719 40.1641 2 Q34.4219 -1.1719 27.6406 -1.1719 Q16.75 -1.1719 10.0391 5.8125 Q3.3281 12.7969 3.3281 25.9219 ZM12.3594 25.9219 Q12.3594 15.9688 16.7031 11.0156 Q21.0469 6.0625 27.6406 6.0625 Q34.1875 6.0625 38.5312 11.0391 Q42.875 16.0156 42.875 26.2188 Q42.875 35.8438 38.5 40.7969 Q34.125 45.75 27.6406 45.75 Q21.0469 45.75 16.7031 40.8203 Q12.3594 35.8906 12.3594 25.9219 Z"
        /><glyph unicode="d" horiz-adv-x="55.615234" d="M40.2344 0 L40.2344 6.5469 Q35.2969 -1.1719 25.7344 -1.1719 Q19.5312 -1.1719 14.3281 2.25 Q9.125 5.6719 6.2734 11.7969 Q3.4219 17.9219 3.4219 25.875 Q3.4219 33.6406 6.0078 39.9688 Q8.5938 46.2969 13.7734 49.6641 Q18.9531 53.0312 25.3438 53.0312 Q30.0312 53.0312 33.6953 51.0547 Q37.3594 49.0781 39.6562 45.9062 L39.6562 71.5781 L48.3906 71.5781 L48.3906 0 L40.2344 0 ZM12.4531 25.875 Q12.4531 15.9219 16.6484 10.9922 Q20.8438 6.0625 26.5625 6.0625 Q32.3281 6.0625 36.3516 10.7734 Q40.375 15.4844 40.375 25.1406 Q40.375 35.7969 36.2734 40.7734 Q32.1719 45.75 26.1719 45.75 Q20.3125 45.75 16.3828 40.9688 Q12.4531 36.1875 12.4531 25.875 Z"
        /><glyph unicode="y" horiz-adv-x="50.0" d="M6.2031 -19.9688 L5.2188 -11.7188 Q8.1094 -12.5 10.25 -12.5 Q13.1875 -12.5 14.9453 -11.5234 Q16.7031 -10.5469 17.8281 -8.7969 Q18.6562 -7.4688 20.5156 -2.25 Q20.75 -1.5156 21.2969 -0.0938 L1.6094 51.8594 L11.0781 51.8594 L21.875 21.8281 Q23.9688 16.1094 25.6406 9.8125 Q27.1562 15.875 29.25 21.625 L40.3281 51.8594 L49.125 51.8594 L29.3906 -0.875 Q26.2188 -9.4219 24.4688 -12.6406 Q22.125 -17 19.0938 -19.0234 Q16.0625 -21.0469 11.8594 -21.0469 Q9.3281 -21.0469 6.2031 -19.9688 Z"
        /><glyph unicode="l" horiz-adv-x="22.216797" d="M6.3906 0 L6.3906 71.5781 L15.1875 71.5781 L15.1875 0 L6.3906 0 Z"
        /><glyph unicode="t" horiz-adv-x="27.783203" d="M25.7812 7.8594 L27.0469 0.0938 Q23.3438 -0.6875 20.4062 -0.6875 Q15.625 -0.6875 12.9922 0.8281 Q10.3594 2.3438 9.2812 4.8125 Q8.2031 7.2812 8.2031 15.1875 L8.2031 45.0156 L1.7656 45.0156 L1.7656 51.8594 L8.2031 51.8594 L8.2031 64.7031 L16.9375 69.9688 L16.9375 51.8594 L25.7812 51.8594 L25.7812 45.0156 L16.9375 45.0156 L16.9375 14.7031 Q16.9375 10.9375 17.4062 9.8672 Q17.875 8.7969 18.9219 8.1562 Q19.9688 7.5156 21.9219 7.5156 Q23.3906 7.5156 25.7812 7.8594 Z"
        /><glyph unicode="c" horiz-adv-x="50.0" d="M40.4375 19 L49.0781 17.875 Q47.6562 8.9375 41.8203 3.8828 Q35.9844 -1.1719 27.4844 -1.1719 Q16.8438 -1.1719 10.375 5.7891 Q3.9062 12.75 3.9062 25.7344 Q3.9062 34.125 6.6875 40.4297 Q9.4688 46.7344 15.1562 49.8828 Q20.8438 53.0312 27.5469 53.0312 Q35.9844 53.0312 41.3594 48.7578 Q46.7344 44.4844 48.25 36.625 L39.7031 35.2969 Q38.4844 40.5312 35.3828 43.1641 Q32.2812 45.7969 27.875 45.7969 Q21.2344 45.7969 17.0859 41.0391 Q12.9375 36.2812 12.9375 25.9844 Q12.9375 15.5312 16.9453 10.7969 Q20.9531 6.0625 27.3906 6.0625 Q32.5625 6.0625 36.0312 9.2344 Q39.5 12.4062 40.4375 19 Z"
        /><glyph unicode="f" horiz-adv-x="27.783203" d="M8.6875 0 L8.6875 45.0156 L0.9219 45.0156 L0.9219 51.8594 L8.6875 51.8594 L8.6875 57.375 Q8.6875 62.5938 9.625 65.1406 Q10.8906 68.5625 14.0859 70.6797 Q17.2812 72.7969 23.0469 72.7969 Q26.7656 72.7969 31.25 71.9219 L29.9375 64.2656 Q27.2031 64.75 24.75 64.75 Q20.75 64.75 19.0938 63.0391 Q17.4375 61.3281 17.4375 56.6406 L17.4375 51.8594 L27.5469 51.8594 L27.5469 45.0156 L17.4375 45.0156 L17.4375 0 L8.6875 0 Z"
        /><glyph unicode="g" horiz-adv-x="55.615234" d="M4.9844 -4.2969 L13.5312 -5.5625 Q14.0625 -9.5156 16.5 -11.3281 Q19.7812 -13.7656 25.4375 -13.7656 Q31.5469 -13.7656 34.8672 -11.3281 Q38.1875 -8.8906 39.3594 -4.5 Q40.0469 -1.8125 39.9844 6.7812 Q34.2344 0 25.6406 0 Q14.9375 0 9.0781 7.7188 Q3.2188 15.4375 3.2188 26.2188 Q3.2188 33.6406 5.9062 39.9141 Q8.5938 46.1875 13.6953 49.6094 Q18.7969 53.0312 25.6875 53.0312 Q34.8594 53.0312 40.8281 45.6094 L40.8281 51.8594 L48.9219 51.8594 L48.9219 7.0312 Q48.9219 -5.0781 46.4609 -10.1328 Q44 -15.1875 38.6484 -18.1172 Q33.2969 -21.0469 25.4844 -21.0469 Q16.2188 -21.0469 10.5 -16.875 Q4.7812 -12.7031 4.9844 -4.2969 ZM12.25 26.8594 Q12.25 16.6562 16.3047 11.9688 Q20.3594 7.2812 26.4688 7.2812 Q32.5156 7.2812 36.6172 11.9453 Q40.7188 16.6094 40.7188 26.5625 Q40.7188 36.0781 36.5 40.9141 Q32.2812 45.75 26.3125 45.75 Q20.4531 45.75 16.3516 40.9922 Q12.25 36.2344 12.25 26.8594 Z"
        /><glyph unicode="i" horiz-adv-x="22.216797" d="M6.6406 61.4688 L6.6406 71.5781 L15.4375 71.5781 L15.4375 61.4688 L6.6406 61.4688 ZM6.6406 0 L6.6406 51.8594 L15.4375 51.8594 L15.4375 0 L6.6406 0 Z"
        /><glyph unicode="m" horiz-adv-x="83.30078" d="M6.5938 0 L6.5938 51.8594 L14.4531 51.8594 L14.4531 44.5781 Q16.8906 48.3906 20.9453 50.7109 Q25 53.0312 30.1719 53.0312 Q35.9375 53.0312 39.625 50.6406 Q43.3125 48.25 44.8281 43.9531 Q50.9844 53.0312 60.8438 53.0312 Q68.5625 53.0312 72.7109 48.7578 Q76.8594 44.4844 76.8594 35.5938 L76.8594 0 L68.1094 0 L68.1094 32.6719 Q68.1094 37.9375 67.2578 40.2578 Q66.4062 42.5781 64.1641 43.9922 Q61.9219 45.4062 58.8906 45.4062 Q53.4219 45.4062 49.8047 41.7734 Q46.1875 38.1406 46.1875 30.125 L46.1875 0 L37.4062 0 L37.4062 33.6875 Q37.4062 39.5469 35.2578 42.4766 Q33.1094 45.4062 28.2188 45.4062 Q24.5156 45.4062 21.3672 43.4531 Q18.2188 41.5 16.7969 37.7422 Q15.375 33.9844 15.375 26.9062 L15.375 0 L6.5938 0 Z"
        /><glyph unicode="e" horiz-adv-x="55.615234" d="M42.0938 16.7031 L51.1719 15.5781 Q49.0312 7.625 43.2188 3.2266 Q37.4062 -1.1719 28.375 -1.1719 Q17 -1.1719 10.3281 5.8359 Q3.6562 12.8438 3.6562 25.4844 Q3.6562 38.5781 10.3984 45.8047 Q17.1406 53.0312 27.875 53.0312 Q38.2812 53.0312 44.875 45.9531 Q51.4688 38.875 51.4688 26.0312 Q51.4688 25.25 51.4219 23.6875 L12.75 23.6875 Q13.2344 15.1406 17.5781 10.6016 Q21.9219 6.0625 28.4219 6.0625 Q33.25 6.0625 36.6719 8.6016 Q40.0938 11.1406 42.0938 16.7031 ZM13.2344 30.9062 L42.1875 30.9062 Q41.6094 37.4531 38.875 40.7188 Q34.6719 45.7969 27.9844 45.7969 Q21.9219 45.7969 17.7969 41.75 Q13.6719 37.7031 13.2344 30.9062 Z"
        /><glyph unicode="v" horiz-adv-x="50.0" d="M21 0 L1.2656 51.8594 L10.5469 51.8594 L21.6875 20.7969 Q23.4844 15.7656 25 10.3594 Q26.1719 14.4531 28.2656 20.2188 L39.7969 51.8594 L48.8281 51.8594 L29.2031 0 L21 0 Z"
        /><glyph unicode="a" horiz-adv-x="55.615234" d="M40.4375 6.3906 Q35.5469 2.25 31.0312 0.5391 Q26.5156 -1.1719 21.3438 -1.1719 Q12.7969 -1.1719 8.2031 3 Q3.6094 7.1719 3.6094 13.6719 Q3.6094 17.4844 5.3438 20.6328 Q7.0781 23.7812 9.8906 25.6875 Q12.7031 27.5938 16.2188 28.5625 Q18.7969 29.25 24.0312 29.8906 Q34.6719 31.1562 39.7031 32.9062 Q39.75 34.7188 39.75 35.2031 Q39.75 40.5781 37.25 42.7812 Q33.8906 45.75 27.25 45.75 Q21.0469 45.75 18.0938 43.5781 Q15.1406 41.4062 13.7188 35.8906 L5.125 37.0625 Q6.2969 42.5781 8.9844 45.9688 Q11.6719 49.3594 16.75 51.1953 Q21.8281 53.0312 28.5156 53.0312 Q35.1562 53.0312 39.3047 51.4688 Q43.4531 49.9062 45.4062 47.5391 Q47.3594 45.1719 48.1406 41.5469 Q48.5781 39.3125 48.5781 33.4531 L48.5781 21.7344 Q48.5781 9.4688 49.1406 6.2266 Q49.7031 2.9844 51.375 0 L42.1875 0 Q40.8281 2.7344 40.4375 6.3906 ZM39.7031 26.0312 Q34.9062 24.0781 25.3438 22.7031 Q19.9219 21.9219 17.6797 20.9453 Q15.4375 19.9688 14.2109 18.0938 Q12.9844 16.2188 12.9844 13.9219 Q12.9844 10.4062 15.6484 8.0625 Q18.3125 5.7188 23.4375 5.7188 Q28.5156 5.7188 32.4688 7.9375 Q36.4219 10.1562 38.2812 14.0156 Q39.7031 17 39.7031 22.7969 L39.7031 26.0312 Z"
        /><glyph unicode="h" horiz-adv-x="55.615234" d="M6.5938 0 L6.5938 71.5781 L15.375 71.5781 L15.375 45.9062 Q21.5312 53.0312 30.9062 53.0312 Q36.6719 53.0312 40.9219 50.7578 Q45.1719 48.4844 47 44.4844 Q48.8281 40.4844 48.8281 32.8594 L48.8281 0 L40.0469 0 L40.0469 32.8594 Q40.0469 39.4531 37.1875 42.4531 Q34.3281 45.4531 29.1094 45.4531 Q25.2031 45.4531 21.7578 43.4297 Q18.3125 41.4062 16.8438 37.9375 Q15.375 34.4688 15.375 28.375 L15.375 0 L6.5938 0 Z"
        /><glyph unicode="s" horiz-adv-x="50.0" d="M3.0781 15.4844 L11.7656 16.8438 Q12.5 11.625 15.8438 8.8438 Q19.1875 6.0625 25.2031 6.0625 Q31.25 6.0625 34.1797 8.5234 Q37.1094 10.9844 37.1094 14.3125 Q37.1094 17.2812 34.5156 19 Q32.7188 20.1719 25.5312 21.9688 Q15.875 24.4219 12.1406 26.2031 Q8.4062 27.9844 6.4766 31.1328 Q4.5469 34.2812 4.5469 38.0938 Q4.5469 41.5469 6.1328 44.5078 Q7.7188 47.4688 10.4531 49.4219 Q12.5 50.9219 16.0391 51.9766 Q19.5781 53.0312 23.6406 53.0312 Q29.7344 53.0312 34.3516 51.2734 Q38.9688 49.5156 41.1641 46.5078 Q43.3594 43.5 44.1875 38.4844 L35.5938 37.3125 Q35.0156 41.3125 32.2031 43.5547 Q29.3906 45.7969 24.2656 45.7969 Q18.2188 45.7969 15.625 43.7969 Q13.0312 41.7969 13.0312 39.1094 Q13.0312 37.4062 14.1094 36.0312 Q15.1875 34.625 17.4844 33.6875 Q18.7969 33.2031 25.25 31.4531 Q34.5781 28.9531 38.2578 27.3672 Q41.9375 25.7812 44.0391 22.7578 Q46.1406 19.7344 46.1406 15.2344 Q46.1406 10.8438 43.5781 6.9609 Q41.0156 3.0781 36.1797 0.9531 Q31.3438 -1.1719 25.25 -1.1719 Q15.1406 -1.1719 9.8438 3.0312 Q4.5469 7.2344 3.0781 15.4844 Z"
        /><glyph unicode="n" horiz-adv-x="55.615234" d="M6.5938 0 L6.5938 51.8594 L14.5 51.8594 L14.5 44.4844 Q20.2188 53.0312 31 53.0312 Q35.6875 53.0312 39.625 51.3438 Q43.5625 49.6562 45.5156 46.9219 Q47.4688 44.1875 48.25 40.4375 Q48.7344 37.9844 48.7344 31.8906 L48.7344 0 L39.9375 0 L39.9375 31.5469 Q39.9375 36.9219 38.9141 39.5781 Q37.8906 42.2344 35.2812 43.8203 Q32.6719 45.4062 29.1562 45.4062 Q23.5312 45.4062 19.4531 41.8438 Q15.375 38.2812 15.375 28.3281 L15.375 0 L6.5938 0 Z"
        /><glyph unicode="u" horiz-adv-x="55.615234" d="M40.5781 0 L40.5781 7.625 Q34.5156 -1.1719 24.125 -1.1719 Q19.5312 -1.1719 15.5547 0.5859 Q11.5781 2.3438 9.6484 5.0078 Q7.7188 7.6719 6.9375 11.5312 Q6.3906 14.1094 6.3906 19.7344 L6.3906 51.8594 L15.1875 51.8594 L15.1875 23.0938 Q15.1875 16.2188 15.7188 13.8125 Q16.5469 10.3594 19.2344 8.375 Q21.9219 6.3906 25.875 6.3906 Q29.8281 6.3906 33.2969 8.4219 Q36.7656 10.4531 38.2109 13.9453 Q39.6562 17.4375 39.6562 24.0781 L39.6562 51.8594 L48.4375 51.8594 L48.4375 0 L40.5781 0 Z"
        /><glyph unicode="r" horiz-adv-x="33.30078" d="M6.5 0 L6.5 51.8594 L14.4062 51.8594 L14.4062 44 Q17.4375 49.5156 20 51.2734 Q22.5625 53.0312 25.6406 53.0312 Q30.0781 53.0312 34.6719 50.2031 L31.6406 42.0469 Q28.4219 43.9531 25.2031 43.9531 Q22.3125 43.9531 20.0156 42.2188 Q17.7188 40.4844 16.75 37.4062 Q15.2812 32.7188 15.2812 27.1562 L15.2812 0 L6.5 0 Z"
        /><glyph unicode=" " horiz-adv-x="27.783203" d=""
      /></font
    ></defs
    ><g style="fill:white; stroke:white;"
    ><rect x="0" y="0" width="1920" style="clip-path:url(#clipPath1); stroke:none;" height="926"
    /></g
    ><g style="fill:white; text-rendering:optimizeSpeed; color-rendering:optimizeSpeed; image-rendering:optimizeSpeed; shape-rendering:crispEdges; stroke:white; color-interpolation:sRGB;"
    ><rect x="0" width="1920" height="926" y="0" style="stroke:none;"
      /><path style="stroke:none;" d="M250 824 L1738 824 L1738 69 L250 69 Z"
    /></g
    ><g style="fill:rgb(38,38,38); text-rendering:geometricPrecision; image-rendering:optimizeQuality; color-rendering:optimizeQuality; stroke-linejoin:round; stroke:rgb(38,38,38); color-interpolation:linearRGB; stroke-width:0.8333;"
    ><line y2="824" style="fill:none;" x1="250" x2="1738" y1="824"
      /><line y2="69" style="fill:none;" x1="250" x2="1738" y1="69"
      /><line y2="809.12" style="fill:none;" x1="250" x2="250" y1="824"
      /><line y2="809.12" style="fill:none;" x1="436" x2="436" y1="824"
      /><line y2="809.12" style="fill:none;" x1="622" x2="622" y1="824"
      /><line y2="809.12" style="fill:none;" x1="808" x2="808" y1="824"
      /><line y2="809.12" style="fill:none;" x1="994" x2="994" y1="824"
      /><line y2="809.12" style="fill:none;" x1="1180" x2="1180" y1="824"
      /><line y2="809.12" style="fill:none;" x1="1366" x2="1366" y1="824"
      /><line y2="809.12" style="fill:none;" x1="1552" x2="1552" y1="824"
      /><line y2="809.12" style="fill:none;" x1="1738" x2="1738" y1="824"
      /><line y2="83.88" style="fill:none;" x1="250" x2="250" y1="69"
      /><line y2="83.88" style="fill:none;" x1="436" x2="436" y1="69"
      /><line y2="83.88" style="fill:none;" x1="622" x2="622" y1="69"
      /><line y2="83.88" style="fill:none;" x1="808" x2="808" y1="69"
      /><line y2="83.88" style="fill:none;" x1="994" x2="994" y1="69"
      /><line y2="83.88" style="fill:none;" x1="1180" x2="1180" y1="69"
      /><line y2="83.88" style="fill:none;" x1="1366" x2="1366" y1="69"
      /><line y2="83.88" style="fill:none;" x1="1552" x2="1552" y1="69"
      /><line y2="83.88" style="fill:none;" x1="1738" x2="1738" y1="69"
    /></g
    ><g transform="translate(250,830.6667)" style="font-size:16.6667px; fill:rgb(38,38,38); text-rendering:geometricPrecision; color-rendering:optimizeQuality; image-rendering:optimizeQuality; stroke:rgb(38,38,38); color-interpolation:linearRGB;"
    ><text x="-12" xml:space="preserve" y="17" style="stroke:none;"
      >0.1</text
    ></g
    ><g transform="translate(436,830.6667)" style="font-size:16.6667px; fill:rgb(38,38,38); text-rendering:geometricPrecision; color-rendering:optimizeQuality; image-rendering:optimizeQuality; stroke:rgb(38,38,38); color-interpolation:linearRGB;"
    ><text x="-12" xml:space="preserve" y="17" style="stroke:none;"
      >0.2</text
    ></g
    ><g transform="translate(622,830.6667)" style="font-size:16.6667px; fill:rgb(38,38,38); text-rendering:geometricPrecision; color-rendering:optimizeQuality; image-rendering:optimizeQuality; stroke:rgb(38,38,38); color-interpolation:linearRGB;"
    ><text x="-12" xml:space="preserve" y="17" style="stroke:none;"
      >0.3</text
    ></g
    ><g transform="translate(808,830.6667)" style="font-size:16.6667px; fill:rgb(38,38,38); text-rendering:geometricPrecision; color-rendering:optimizeQuality; image-rendering:optimizeQuality; stroke:rgb(38,38,38); color-interpolation:linearRGB;"
    ><text x="-12" xml:space="preserve" y="17" style="stroke:none;"
      >0.4</text
    ></g
    ><g transform="translate(994,830.6667)" style="font-size:16.6667px; fill:rgb(38,38,38); text-rendering:geometricPrecision; color-rendering:optimizeQuality; image-rendering:optimizeQuality; stroke:rgb(38,38,38); color-interpolation:linearRGB;"
    ><text x="-12" xml:space="preserve" y="17" style="stroke:none;"
      >0.5</text
    ></g
    ><g transform="translate(1180,830.6667)" style="font-size:16.6667px; fill:rgb(38,38,38); text-rendering:geometricPrecision; color-rendering:optimizeQuality; image-rendering:optimizeQuality; stroke:rgb(38,38,38); color-interpolation:linearRGB;"
    ><text x="-12" xml:space="preserve" y="17" style="stroke:none;"
      >0.6</text
    ></g
    ><g transform="translate(1366,830.6667)" style="font-size:16.6667px; fill:rgb(38,38,38); text-rendering:geometricPrecision; color-rendering:optimizeQuality; image-rendering:optimizeQuality; stroke:rgb(38,38,38); color-interpolation:linearRGB;"
    ><text x="-12" xml:space="preserve" y="17" style="stroke:none;"
      >0.7</text
    ></g
    ><g transform="translate(1552,830.6667)" style="font-size:16.6667px; fill:rgb(38,38,38); text-rendering:geometricPrecision; color-rendering:optimizeQuality; image-rendering:optimizeQuality; stroke:rgb(38,38,38); color-interpolation:linearRGB;"
    ><text x="-12" xml:space="preserve" y="17" style="stroke:none;"
      >0.8</text
    ></g
    ><g transform="translate(1738,830.6667)" style="font-size:16.6667px; fill:rgb(38,38,38); text-rendering:geometricPrecision; color-rendering:optimizeQuality; image-rendering:optimizeQuality; stroke:rgb(38,38,38); color-interpolation:linearRGB;"
    ><text x="-12" xml:space="preserve" y="17" style="stroke:none;"
      >0.9</text
    ></g
    ><g transform="translate(994.0007,853.3333)" style="font-size:18.3333px; fill:rgb(38,38,38); text-rendering:geometricPrecision; color-rendering:optimizeQuality; image-rendering:optimizeQuality; stroke:rgb(38,38,38); color-interpolation:linearRGB;"
    ><text x="-218" xml:space="preserve" y="19" style="stroke:none;"
      >14 runs have means significantly different from run 24</text
    ></g
    ><g style="fill:rgb(38,38,38); text-rendering:geometricPrecision; image-rendering:optimizeQuality; color-rendering:optimizeQuality; stroke-linejoin:round; stroke:rgb(38,38,38); color-interpolation:linearRGB; stroke-width:0.8333;"
    ><line y2="69" style="fill:none;" x1="250" x2="250" y1="824"
      /><line y2="69" style="fill:none;" x1="1738" x2="1738" y1="824"
      /><line y2="808.2708" style="fill:none;" x1="250" x2="264.88" y1="808.2708"
      /><line y2="776.8125" style="fill:none;" x1="250" x2="264.88" y1="776.8125"
      /><line y2="745.3542" style="fill:none;" x1="250" x2="264.88" y1="745.3542"
      /><line y2="713.8958" style="fill:none;" x1="250" x2="264.88" y1="713.8958"
      /><line y2="682.4375" style="fill:none;" x1="250" x2="264.88" y1="682.4375"
      /><line y2="650.9792" style="fill:none;" x1="250" x2="264.88" y1="650.9792"
      /><line y2="619.5208" style="fill:none;" x1="250" x2="264.88" y1="619.5208"
      /><line y2="588.0625" style="fill:none;" x1="250" x2="264.88" y1="588.0625"
      /><line y2="556.6042" style="fill:none;" x1="250" x2="264.88" y1="556.6042"
      /><line y2="525.1458" style="fill:none;" x1="250" x2="264.88" y1="525.1458"
      /><line y2="493.6875" style="fill:none;" x1="250" x2="264.88" y1="493.6875"
      /><line y2="462.2292" style="fill:none;" x1="250" x2="264.88" y1="462.2292"
      /><line y2="430.7708" style="fill:none;" x1="250" x2="264.88" y1="430.7708"
      /><line y2="399.3125" style="fill:none;" x1="250" x2="264.88" y1="399.3125"
      /><line y2="367.8542" style="fill:none;" x1="250" x2="264.88" y1="367.8542"
      /><line y2="336.3958" style="fill:none;" x1="250" x2="264.88" y1="336.3958"
      /><line y2="304.9375" style="fill:none;" x1="250" x2="264.88" y1="304.9375"
      /><line y2="273.4792" style="fill:none;" x1="250" x2="264.88" y1="273.4792"
      /><line y2="242.0208" style="fill:none;" x1="250" x2="264.88" y1="242.0208"
      /><line y2="210.5625" style="fill:none;" x1="250" x2="264.88" y1="210.5625"
      /><line y2="179.1042" style="fill:none;" x1="250" x2="264.88" y1="179.1042"
      /><line y2="147.6458" style="fill:none;" x1="250" x2="264.88" y1="147.6458"
      /><line y2="116.1875" style="fill:none;" x1="250" x2="264.88" y1="116.1875"
      /><line y2="84.7292" style="fill:none;" x1="250" x2="264.88" y1="84.7292"
      /><line y2="808.2708" style="fill:none;" x1="1738" x2="1723.1199" y1="808.2708"
      /><line y2="776.8125" style="fill:none;" x1="1738" x2="1723.1199" y1="776.8125"
      /><line y2="745.3542" style="fill:none;" x1="1738" x2="1723.1199" y1="745.3542"
      /><line y2="713.8958" style="fill:none;" x1="1738" x2="1723.1199" y1="713.8958"
      /><line y2="682.4375" style="fill:none;" x1="1738" x2="1723.1199" y1="682.4375"
      /><line y2="650.9792" style="fill:none;" x1="1738" x2="1723.1199" y1="650.9792"
      /><line y2="619.5208" style="fill:none;" x1="1738" x2="1723.1199" y1="619.5208"
      /><line y2="588.0625" style="fill:none;" x1="1738" x2="1723.1199" y1="588.0625"
      /><line y2="556.6042" style="fill:none;" x1="1738" x2="1723.1199" y1="556.6042"
      /><line y2="525.1458" style="fill:none;" x1="1738" x2="1723.1199" y1="525.1458"
      /><line y2="493.6875" style="fill:none;" x1="1738" x2="1723.1199" y1="493.6875"
      /><line y2="462.2292" style="fill:none;" x1="1738" x2="1723.1199" y1="462.2292"
      /><line y2="430.7708" style="fill:none;" x1="1738" x2="1723.1199" y1="430.7708"
      /><line y2="399.3125" style="fill:none;" x1="1738" x2="1723.1199" y1="399.3125"
      /><line y2="367.8542" style="fill:none;" x1="1738" x2="1723.1199" y1="367.8542"
      /><line y2="336.3958" style="fill:none;" x1="1738" x2="1723.1199" y1="336.3958"
      /><line y2="304.9375" style="fill:none;" x1="1738" x2="1723.1199" y1="304.9375"
      /><line y2="273.4792" style="fill:none;" x1="1738" x2="1723.1199" y1="273.4792"
      /><line y2="242.0208" style="fill:none;" x1="1738" x2="1723.1199" y1="242.0208"
      /><line y2="210.5625" style="fill:none;" x1="1738" x2="1723.1199" y1="210.5625"
      /><line y2="179.1042" style="fill:none;" x1="1738" x2="1723.1199" y1="179.1042"
      /><line y2="147.6458" style="fill:none;" x1="1738" x2="1723.1199" y1="147.6458"
      /><line y2="116.1875" style="fill:none;" x1="1738" x2="1723.1199" y1="116.1875"
      /><line y2="84.7292" style="fill:none;" x1="1738" x2="1723.1199" y1="84.7292"
    /></g
    ><g transform="translate(243.3333,808.2708)" style="font-size:16.6667px; fill:rgb(38,38,38); text-rendering:geometricPrecision; color-rendering:optimizeQuality; image-rendering:optimizeQuality; stroke:rgb(38,38,38); color-interpolation:linearRGB;"
    ><text x="-19" xml:space="preserve" y="6.5" style="stroke:none;"
      >11</text
    ></g
    ><g transform="translate(243.3333,776.8125)" style="font-size:16.6667px; fill:rgb(38,38,38); text-rendering:geometricPrecision; color-rendering:optimizeQuality; image-rendering:optimizeQuality; stroke:rgb(38,38,38); color-interpolation:linearRGB;"
    ><text x="-10" xml:space="preserve" y="6.5" style="stroke:none;"
      >3</text
    ></g
    ><g transform="translate(243.3333,745.3542)" style="font-size:16.6667px; fill:rgb(38,38,38); text-rendering:geometricPrecision; color-rendering:optimizeQuality; image-rendering:optimizeQuality; stroke:rgb(38,38,38); color-interpolation:linearRGB;"
    ><text x="-10" xml:space="preserve" y="6.5" style="stroke:none;"
      >2</text
    ></g
    ><g transform="translate(243.3333,713.8958)" style="font-size:16.6667px; fill:rgb(38,38,38); text-rendering:geometricPrecision; color-rendering:optimizeQuality; image-rendering:optimizeQuality; stroke:rgb(38,38,38); color-interpolation:linearRGB;"
    ><text x="-10" xml:space="preserve" y="6.5" style="stroke:none;"
      >1</text
    ></g
    ><g transform="translate(243.3333,682.4375)" style="font-size:16.6667px; fill:rgb(38,38,38); text-rendering:geometricPrecision; color-rendering:optimizeQuality; image-rendering:optimizeQuality; stroke:rgb(38,38,38); color-interpolation:linearRGB;"
    ><text x="-19" xml:space="preserve" y="6.5" style="stroke:none;"
      >12</text
    ></g
    ><g transform="translate(243.3333,650.9792)" style="font-size:16.6667px; fill:rgb(38,38,38); text-rendering:geometricPrecision; color-rendering:optimizeQuality; image-rendering:optimizeQuality; stroke:rgb(38,38,38); color-interpolation:linearRGB;"
    ><text x="-10" xml:space="preserve" y="6.5" style="stroke:none;"
      >8</text
    ></g
    ><g transform="translate(243.3333,619.5208)" style="font-size:16.6667px; fill:rgb(38,38,38); text-rendering:geometricPrecision; color-rendering:optimizeQuality; image-rendering:optimizeQuality; stroke:rgb(38,38,38); color-interpolation:linearRGB;"
    ><text x="-10" xml:space="preserve" y="6.5" style="stroke:none;"
      >9</text
    ></g
    ><g transform="translate(243.3333,588.0625)" style="font-size:16.6667px; fill:rgb(38,38,38); text-rendering:geometricPrecision; color-rendering:optimizeQuality; image-rendering:optimizeQuality; stroke:rgb(38,38,38); color-interpolation:linearRGB;"
    ><text x="-10" xml:space="preserve" y="6.5" style="stroke:none;"
      >5</text
    ></g
    ><g transform="translate(243.3333,556.6042)" style="font-size:16.6667px; fill:rgb(38,38,38); text-rendering:geometricPrecision; color-rendering:optimizeQuality; image-rendering:optimizeQuality; stroke:rgb(38,38,38); color-interpolation:linearRGB;"
    ><text x="-10" xml:space="preserve" y="6.5" style="stroke:none;"
      >4</text
    ></g
    ><g transform="translate(243.3333,525.1458)" style="font-size:16.6667px; fill:rgb(38,38,38); text-rendering:geometricPrecision; color-rendering:optimizeQuality; image-rendering:optimizeQuality; stroke:rgb(38,38,38); color-interpolation:linearRGB;"
    ><text x="-19" xml:space="preserve" y="6.5" style="stroke:none;"
      >13</text
    ></g
    ><g transform="translate(243.3333,493.6875)" style="font-size:16.6667px; fill:rgb(38,38,38); text-rendering:geometricPrecision; color-rendering:optimizeQuality; image-rendering:optimizeQuality; stroke:rgb(38,38,38); color-interpolation:linearRGB;"
    ><text x="-10" xml:space="preserve" y="6.5" style="stroke:none;"
      >6</text
    ></g
    ><g transform="translate(243.3333,462.2292)" style="font-size:16.6667px; fill:rgb(38,38,38); text-rendering:geometricPrecision; color-rendering:optimizeQuality; image-rendering:optimizeQuality; stroke:rgb(38,38,38); color-interpolation:linearRGB;"
    ><text x="-19" xml:space="preserve" y="6.5" style="stroke:none;"
      >10</text
    ></g
    ><g transform="translate(243.3333,430.7708)" style="font-size:16.6667px; fill:rgb(38,38,38); text-rendering:geometricPrecision; color-rendering:optimizeQuality; image-rendering:optimizeQuality; stroke:rgb(38,38,38); color-interpolation:linearRGB;"
    ><text x="-10" xml:space="preserve" y="6.5" style="stroke:none;"
      >7</text
    ></g
    ><g transform="translate(243.3333,399.3125)" style="font-size:16.6667px; fill:rgb(38,38,38); text-rendering:geometricPrecision; color-rendering:optimizeQuality; image-rendering:optimizeQuality; stroke:rgb(38,38,38); color-interpolation:linearRGB;"
    ><text x="-19" xml:space="preserve" y="6.5" style="stroke:none;"
      >14</text
    ></g
    ><g transform="translate(243.3333,367.8542)" style="font-size:16.6667px; fill:rgb(38,38,38); text-rendering:geometricPrecision; color-rendering:optimizeQuality; image-rendering:optimizeQuality; stroke:rgb(38,38,38); color-interpolation:linearRGB;"
    ><text x="-19" xml:space="preserve" y="6.5" style="stroke:none;"
      >15</text
    ></g
    ><g transform="translate(243.3333,336.3958)" style="font-size:16.6667px; fill:rgb(38,38,38); text-rendering:geometricPrecision; color-rendering:optimizeQuality; image-rendering:optimizeQuality; stroke:rgb(38,38,38); color-interpolation:linearRGB;"
    ><text x="-19" xml:space="preserve" y="6.5" style="stroke:none;"
      >18</text
    ></g
    ><g transform="translate(243.3333,304.9375)" style="font-size:16.6667px; fill:rgb(38,38,38); text-rendering:geometricPrecision; color-rendering:optimizeQuality; image-rendering:optimizeQuality; stroke:rgb(38,38,38); color-interpolation:linearRGB;"
    ><text x="-19" xml:space="preserve" y="6.5" style="stroke:none;"
      >19</text
    ></g
    ><g transform="translate(243.3333,273.4792)" style="font-size:16.6667px; fill:rgb(38,38,38); text-rendering:geometricPrecision; color-rendering:optimizeQuality; image-rendering:optimizeQuality; stroke:rgb(38,38,38); color-interpolation:linearRGB;"
    ><text x="-19" xml:space="preserve" y="6.5" style="stroke:none;"
      >17</text
    ></g
    ><g transform="translate(243.3333,242.0208)" style="font-size:16.6667px; fill:rgb(38,38,38); text-rendering:geometricPrecision; color-rendering:optimizeQuality; image-rendering:optimizeQuality; stroke:rgb(38,38,38); color-interpolation:linearRGB;"
    ><text x="-19" xml:space="preserve" y="6.5" style="stroke:none;"
      >16</text
    ></g
    ><g transform="translate(243.3333,210.5625)" style="font-size:16.6667px; fill:rgb(38,38,38); text-rendering:geometricPrecision; color-rendering:optimizeQuality; image-rendering:optimizeQuality; stroke:rgb(38,38,38); color-interpolation:linearRGB;"
    ><text x="-19" xml:space="preserve" y="6.5" style="stroke:none;"
      >20</text
    ></g
    ><g transform="translate(243.3333,179.1042)" style="font-size:16.6667px; fill:rgb(38,38,38); text-rendering:geometricPrecision; color-rendering:optimizeQuality; image-rendering:optimizeQuality; stroke:rgb(38,38,38); color-interpolation:linearRGB;"
    ><text x="-19" xml:space="preserve" y="6.5" style="stroke:none;"
      >22</text
    ></g
    ><g transform="translate(243.3333,147.6458)" style="font-size:16.6667px; fill:rgb(38,38,38); text-rendering:geometricPrecision; color-rendering:optimizeQuality; image-rendering:optimizeQuality; stroke:rgb(38,38,38); color-interpolation:linearRGB;"
    ><text x="-19" xml:space="preserve" y="6.5" style="stroke:none;"
      >23</text
    ></g
    ><g transform="translate(243.3333,116.1875)" style="font-size:16.6667px; fill:rgb(38,38,38); text-rendering:geometricPrecision; color-rendering:optimizeQuality; image-rendering:optimizeQuality; stroke:rgb(38,38,38); color-interpolation:linearRGB;"
    ><text x="-19" xml:space="preserve" y="6.5" style="stroke:none;"
      >21</text
    ></g
    ><g transform="translate(243.3333,84.7292)" style="font-size:16.6667px; fill:rgb(38,38,38); text-rendering:geometricPrecision; color-rendering:optimizeQuality; image-rendering:optimizeQuality; stroke:rgb(38,38,38); color-interpolation:linearRGB;"
    ><text x="-19" xml:space="preserve" y="6.5" style="stroke:none;"
      >24</text
    ></g
    ><g style="stroke-linecap:butt; fill:rgb(204,204,204); text-rendering:geometricPrecision; image-rendering:optimizeQuality; color-rendering:optimizeQuality; stroke-linejoin:bevel; stroke-dasharray:1,3; stroke:rgb(204,204,204); color-interpolation:linearRGB; stroke-width:0.8333; stroke-miterlimit:1;"
    ><line y2="69" style="fill:none;" x1="1205.8344" x2="1205.8344" y1="824"
      /><line y2="69" style="fill:none;" x1="1559.4001" x2="1559.4001" y1="824"
      /><path d="M0 -4.5833 C2.5313 -4.5833 4.5833 -2.5313 4.5833 0 L4.5833 0 C4.5833 2.5313 2.5313 4.5833 -0 4.5833 C-2.5313 4.5833 -4.5833 2.5313 -4.5833 -0 C-4.5833 -2.5313 -2.5313 -4.5833 0 -4.5833 ZM0 -5.4167 C-2.9915 -5.4167 -5.4167 -2.9915 -5.4167 -0 C-5.4167 2.9915 -2.9915 5.4167 -0 5.4167 C2.9915 5.4167 5.4167 2.9915 5.4167 0 L5.4167 0 C5.4167 -2.9915 2.9915 -5.4167 0 -5.4167 Z" style="fill:blue; stroke:none;" transform="translate(1382.6173,84.7292)"
    /></g
    ><g style="stroke-linecap:butt; fill:blue; text-rendering:geometricPrecision; image-rendering:optimizeQuality; color-rendering:optimizeQuality; stroke-linejoin:round; stroke:blue; color-interpolation:linearRGB; stroke-width:0.8333;"
    ><line y2="84.7292" style="fill:none;" x1="1205.8344" x2="1559.4001" y1="84.7292"
      /><path d="M0 -4.5833 C2.5313 -4.5833 4.5833 -2.5313 4.5833 0 L4.5833 0 C4.5833 2.5313 2.5313 4.5833 -0 4.5833 C-2.5313 4.5833 -4.5833 2.5313 -4.5833 -0 C-4.5833 -2.5313 -2.5313 -4.5833 0 -4.5833 ZM0 -5.4167 C-2.9915 -5.4167 -5.4167 -2.9915 -5.4167 -0 C-5.4167 2.9915 -2.9915 5.4167 -0 5.4167 C2.9915 5.4167 5.4167 2.9915 5.4167 0 L5.4167 0 C5.4167 -2.9915 2.9915 -5.4167 0 -5.4167 Z" style="fill:rgb(204,204,204); stroke:none;" transform="translate(1357.4218,116.1875)"
      /><line x1="1180.6388" x2="1534.2046" y1="116.1875" style="fill:none; stroke:rgb(204,204,204);" y2="116.1875"
      /><path d="M0 -4.5833 C2.5313 -4.5833 4.5833 -2.5313 4.5833 0 L4.5833 0 C4.5833 2.5313 2.5313 4.5833 -0 4.5833 C-2.5313 4.5833 -4.5833 2.5313 -4.5833 -0 C-4.5833 -2.5313 -2.5313 -4.5833 0 -4.5833 ZM0 -5.4167 C-2.9915 -5.4167 -5.4167 -2.9915 -5.4167 -0 C-5.4167 2.9915 -2.9915 5.4167 -0 5.4167 C2.9915 5.4167 5.4167 2.9915 5.4167 0 L5.4167 0 C5.4167 -2.9915 2.9915 -5.4167 0 -5.4167 Z" style="fill:rgb(204,204,204); stroke:none;" transform="translate(1306.5952,147.6458)"
      /><line x1="1129.8125" x2="1483.3782" y1="147.6458" style="fill:none; stroke:rgb(204,204,204);" y2="147.6458"
      /><path d="M0 -4.5833 C2.5313 -4.5833 4.5833 -2.5313 4.5833 0 L4.5833 0 C4.5833 2.5313 2.5313 4.5833 -0 4.5833 C-2.5313 4.5833 -4.5833 2.5313 -4.5833 -0 C-4.5833 -2.5313 -2.5313 -4.5833 0 -4.5833 ZM0 -5.4167 C-2.9915 -5.4167 -5.4167 -2.9915 -5.4167 -0 C-5.4167 2.9915 -2.9915 5.4167 -0 5.4167 C2.9915 5.4167 5.4167 2.9915 5.4167 0 L5.4167 0 C5.4167 -2.9915 2.9915 -5.4167 0 -5.4167 Z" style="fill:rgb(204,204,204); stroke:none;" transform="translate(1304.3669,179.1042)"
      /><line x1="1127.5841" x2="1481.1499" y1="179.1042" style="fill:none; stroke:rgb(204,204,204);" y2="179.1042"
      /><path d="M0 -4.5833 C2.5313 -4.5833 4.5833 -2.5313 4.5833 0 L4.5833 0 C4.5833 2.5313 2.5313 4.5833 -0 4.5833 C-2.5313 4.5833 -4.5833 2.5313 -4.5833 -0 C-4.5833 -2.5313 -2.5313 -4.5833 0 -4.5833 ZM0 -5.4167 C-2.9915 -5.4167 -5.4167 -2.9915 -5.4167 -0 C-5.4167 2.9915 -2.9915 5.4167 -0 5.4167 C2.9915 5.4167 5.4167 2.9915 5.4167 0 L5.4167 0 C5.4167 -2.9915 2.9915 -5.4167 0 -5.4167 Z" style="fill:rgb(204,204,204); stroke:none;" transform="translate(1247.2687,210.5625)"
      /><line x1="1070.4858" x2="1424.0516" y1="210.5625" style="fill:none; stroke:rgb(204,204,204);" y2="210.5625"
      /><path d="M0 -4.5833 C2.5313 -4.5833 4.5833 -2.5313 4.5833 0 L4.5833 0 C4.5833 2.5313 2.5313 4.5833 -0 4.5833 C-2.5313 4.5833 -4.5833 2.5313 -4.5833 -0 C-4.5833 -2.5313 -2.5313 -4.5833 0 -4.5833 ZM0 -5.4167 C-2.9915 -5.4167 -5.4167 -2.9915 -5.4167 -0 C-5.4167 2.9915 -2.9915 5.4167 -0 5.4167 C2.9915 5.4167 5.4167 2.9915 5.4167 0 L5.4167 0 C5.4167 -2.9915 2.9915 -5.4167 0 -5.4167 Z" style="fill:rgb(204,204,204); stroke:none;" transform="translate(1198.3062,242.0208)"
      /><line x1="1021.5233" x2="1375.089" y1="242.0208" style="fill:none; stroke:rgb(204,204,204);" y2="242.0208"
      /><path d="M0 -4.5833 C2.5313 -4.5833 4.5833 -2.5313 4.5833 0 L4.5833 0 C4.5833 2.5313 2.5313 4.5833 -0 4.5833 C-2.5313 4.5833 -4.5833 2.5313 -4.5833 -0 C-4.5833 -2.5313 -2.5313 -4.5833 0 -4.5833 ZM0 -5.4167 C-2.9915 -5.4167 -5.4167 -2.9915 -5.4167 -0 C-5.4167 2.9915 -2.9915 5.4167 -0 5.4167 C2.9915 5.4167 5.4167 2.9915 5.4167 0 L5.4167 0 C5.4167 -2.9915 2.9915 -5.4167 0 -5.4167 Z" style="fill:rgb(204,204,204); stroke:none;" transform="translate(1186.6663,273.4792)"
      /><line x1="1009.8834" x2="1363.4491" y1="273.4792" style="fill:none; stroke:rgb(204,204,204);" y2="273.4792"
      /><path d="M0 -4.5833 C2.5313 -4.5833 4.5833 -2.5313 4.5833 0 L4.5833 0 C4.5833 2.5313 2.5313 4.5833 -0 4.5833 C-2.5313 4.5833 -4.5833 2.5313 -4.5833 -0 C-4.5833 -2.5313 -2.5313 -4.5833 0 -4.5833 ZM0 -5.4167 C-2.9915 -5.4167 -5.4167 -2.9915 -5.4167 -0 C-5.4167 2.9915 -2.9915 5.4167 -0 5.4167 C2.9915 5.4167 5.4167 2.9915 5.4167 0 L5.4167 0 C5.4167 -2.9915 2.9915 -5.4167 0 -5.4167 Z" style="fill:rgb(204,204,204); stroke:none;" transform="translate(1137.6702,304.9375)"
      /><line x1="960.8873" x2="1314.453" y1="304.9375" style="fill:none; stroke:rgb(204,204,204);" y2="304.9375"
      /><path d="M0 -4.5833 C2.5313 -4.5833 4.5833 -2.5313 4.5833 0 L4.5833 0 C4.5833 2.5313 2.5313 4.5833 -0 4.5833 C-2.5313 4.5833 -4.5833 2.5313 -4.5833 -0 C-4.5833 -2.5313 -2.5313 -4.5833 0 -4.5833 ZM0 -5.4167 C-2.9915 -5.4167 -5.4167 -2.9915 -5.4167 -0 C-5.4167 2.9915 -2.9915 5.4167 -0 5.4167 C2.9915 5.4167 5.4167 2.9915 5.4167 0 L5.4167 0 C5.4167 -2.9915 2.9915 -5.4167 0 -5.4167 Z" style="fill:rgb(204,204,204); stroke:none;" transform="translate(1101.8689,336.3958)"
      /><line x1="925.086" x2="1278.6517" y1="336.3958" style="fill:none; stroke:rgb(204,204,204);" y2="336.3958"
      /><path d="M0 -4.5833 C2.5313 -4.5833 4.5833 -2.5313 4.5833 0 L4.5833 0 C4.5833 2.5313 2.5313 4.5833 -0 4.5833 C-2.5313 4.5833 -4.5833 2.5313 -4.5833 -0 C-4.5833 -2.5313 -2.5313 -4.5833 0 -4.5833 ZM0 -5.4167 C-2.9915 -5.4167 -5.4167 -2.9915 -5.4167 -0 C-5.4167 2.9915 -2.9915 5.4167 -0 5.4167 C2.9915 5.4167 5.4167 2.9915 5.4167 0 L5.4167 0 C5.4167 -2.9915 2.9915 -5.4167 0 -5.4167 Z" style="fill:rgb(204,204,204); stroke:none;" transform="translate(1080.7504,367.8542)"
      /><line x1="903.9675" x2="1257.5332" y1="367.8542" style="fill:none; stroke:rgb(204,204,204);" y2="367.8542"
      /><path d="M0 -4.5833 C2.5313 -4.5833 4.5833 -2.5313 4.5833 0 L4.5833 0 C4.5833 2.5313 2.5313 4.5833 -0 4.5833 C-2.5313 4.5833 -4.5833 2.5313 -4.5833 -0 C-4.5833 -2.5313 -2.5313 -4.5833 0 -4.5833 ZM0 -5.4167 C-2.9915 -5.4167 -5.4167 -2.9915 -5.4167 -0 C-5.4167 2.9915 -2.9915 5.4167 -0 5.4167 C2.9915 5.4167 5.4167 2.9915 5.4167 0 L5.4167 0 C5.4167 -2.9915 2.9915 -5.4167 0 -5.4167 Z" style="fill:red; stroke:none;" transform="translate(982.6577,399.3125)"
      /><line x1="805.8748" x2="1159.4406" y1="399.3125" style="fill:none; stroke:red;" y2="399.3125"
      /><path d="M0 -4.5833 C2.5313 -4.5833 4.5833 -2.5313 4.5833 0 L4.5833 0 C4.5833 2.5313 2.5313 4.5833 -0 4.5833 C-2.5313 4.5833 -4.5833 2.5313 -4.5833 -0 C-4.5833 -2.5313 -2.5313 -4.5833 0 -4.5833 ZM0 -5.4167 C-2.9915 -5.4167 -5.4167 -2.9915 -5.4167 -0 C-5.4167 2.9915 -2.9915 5.4167 -0 5.4167 C2.9915 5.4167 5.4167 2.9915 5.4167 0 L5.4167 0 C5.4167 -2.9915 2.9915 -5.4167 0 -5.4167 Z" style="fill:red; stroke:none;" transform="translate(974.7378,430.7708)"
      /><line x1="797.955" x2="1151.5208" y1="430.7708" style="fill:none; stroke:red;" y2="430.7708"
      /><path d="M0 -4.5833 C2.5313 -4.5833 4.5833 -2.5313 4.5833 0 L4.5833 0 C4.5833 2.5313 2.5313 4.5833 -0 4.5833 C-2.5313 4.5833 -4.5833 2.5313 -4.5833 -0 C-4.5833 -2.5313 -2.5313 -4.5833 0 -4.5833 ZM0 -5.4167 C-2.9915 -5.4167 -5.4167 -2.9915 -5.4167 -0 C-5.4167 2.9915 -2.9915 5.4167 -0 5.4167 C2.9915 5.4167 5.4167 2.9915 5.4167 0 L5.4167 0 C5.4167 -2.9915 2.9915 -5.4167 0 -5.4167 Z" style="fill:red; stroke:none;" transform="translate(964.333,462.2292)"
      /><line x1="787.5502" x2="1141.1158" y1="462.2292" style="fill:none; stroke:red;" y2="462.2292"
      /><path d="M0 -4.5833 C2.5313 -4.5833 4.5833 -2.5313 4.5833 0 L4.5833 0 C4.5833 2.5313 2.5313 4.5833 -0 4.5833 C-2.5313 4.5833 -4.5833 2.5313 -4.5833 -0 C-4.5833 -2.5313 -2.5313 -4.5833 0 -4.5833 ZM0 -5.4167 C-2.9915 -5.4167 -5.4167 -2.9915 -5.4167 -0 C-5.4167 2.9915 -2.9915 5.4167 -0 5.4167 C2.9915 5.4167 5.4167 2.9915 5.4167 0 L5.4167 0 C5.4167 -2.9915 2.9915 -5.4167 0 -5.4167 Z" style="fill:red; stroke:none;" transform="translate(946.8192,493.6875)"
      /><line x1="770.0364" x2="1123.6021" y1="493.6875" style="fill:none; stroke:red;" y2="493.6875"
      /><path d="M0 -4.5833 C2.5313 -4.5833 4.5833 -2.5313 4.5833 0 L4.5833 0 C4.5833 2.5313 2.5313 4.5833 -0 4.5833 C-2.5313 4.5833 -4.5833 2.5313 -4.5833 -0 C-4.5833 -2.5313 -2.5313 -4.5833 0 -4.5833 ZM0 -5.4167 C-2.9915 -5.4167 -5.4167 -2.9915 -5.4167 -0 C-5.4167 2.9915 -2.9915 5.4167 -0 5.4167 C2.9915 5.4167 5.4167 2.9915 5.4167 0 L5.4167 0 C5.4167 -2.9915 2.9915 -5.4167 0 -5.4167 Z" style="fill:red; stroke:none;" transform="translate(907.4207,525.1458)"
      /><line x1="730.6378" x2="1084.2036" y1="525.1458" style="fill:none; stroke:red;" y2="525.1458"
      /><path d="M0 -4.5833 C2.5313 -4.5833 4.5833 -2.5313 4.5833 0 L4.5833 0 C4.5833 2.5313 2.5313 4.5833 -0 4.5833 C-2.5313 4.5833 -4.5833 2.5313 -4.5833 -0 C-4.5833 -2.5313 -2.5313 -4.5833 0 -4.5833 ZM0 -5.4167 C-2.9915 -5.4167 -5.4167 -2.9915 -5.4167 -0 C-5.4167 2.9915 -2.9915 5.4167 -0 5.4167 C2.9915 5.4167 5.4167 2.9915 5.4167 0 L5.4167 0 C5.4167 -2.9915 2.9915 -5.4167 0 -5.4167 Z" style="fill:red; stroke:none;" transform="translate(900.5424,556.6042)"
      /><line x1="723.7596" x2="1077.3253" y1="556.6042" style="fill:none; stroke:red;" y2="556.6042"
      /><path d="M0 -4.5833 C2.5313 -4.5833 4.5833 -2.5313 4.5833 0 L4.5833 0 C4.5833 2.5313 2.5313 4.5833 -0 4.5833 C-2.5313 4.5833 -4.5833 2.5313 -4.5833 -0 C-4.5833 -2.5313 -2.5313 -4.5833 0 -4.5833 ZM0 -5.4167 C-2.9915 -5.4167 -5.4167 -2.9915 -5.4167 -0 C-5.4167 2.9915 -2.9915 5.4167 -0 5.4167 C2.9915 5.4167 5.4167 2.9915 5.4167 0 L5.4167 0 C5.4167 -2.9915 2.9915 -5.4167 0 -5.4167 Z" style="fill:red; stroke:none;" transform="translate(893.7014,588.0625)"
      /><line x1="716.9185" x2="1070.4841" y1="588.0625" style="fill:none; stroke:red;" y2="588.0625"
      /><path d="M0 -4.5833 C2.5313 -4.5833 4.5833 -2.5313 4.5833 0 L4.5833 0 C4.5833 2.5313 2.5313 4.5833 -0 4.5833 C-2.5313 4.5833 -4.5833 2.5313 -4.5833 -0 C-4.5833 -2.5313 -2.5313 -4.5833 0 -4.5833 ZM0 -5.4167 C-2.9915 -5.4167 -5.4167 -2.9915 -5.4167 -0 C-5.4167 2.9915 -2.9915 5.4167 -0 5.4167 C2.9915 5.4167 5.4167 2.9915 5.4167 0 L5.4167 0 C5.4167 -2.9915 2.9915 -5.4167 0 -5.4167 Z" style="fill:red; stroke:none;" transform="translate(861.103,619.5208)"
      /><line x1="684.3201" x2="1037.8859" y1="619.5208" style="fill:none; stroke:red;" y2="619.5208"
      /><path d="M0 -4.5833 C2.5313 -4.5833 4.5833 -2.5313 4.5833 0 L4.5833 0 C4.5833 2.5313 2.5313 4.5833 -0 4.5833 C-2.5313 4.5833 -4.5833 2.5313 -4.5833 -0 C-4.5833 -2.5313 -2.5313 -4.5833 0 -4.5833 ZM0 -5.4167 C-2.9915 -5.4167 -5.4167 -2.9915 -5.4167 -0 C-5.4167 2.9915 -2.9915 5.4167 -0 5.4167 C2.9915 5.4167 5.4167 2.9915 5.4167 0 L5.4167 0 C5.4167 -2.9915 2.9915 -5.4167 0 -5.4167 Z" style="fill:red; stroke:none;" transform="translate(845.4678,650.9792)"
      /><line x1="668.6849" x2="1022.2507" y1="650.9792" style="fill:none; stroke:red;" y2="650.9792"
      /><path d="M0 -4.5833 C2.5313 -4.5833 4.5833 -2.5313 4.5833 0 L4.5833 0 C4.5833 2.5313 2.5313 4.5833 -0 4.5833 C-2.5313 4.5833 -4.5833 2.5313 -4.5833 -0 C-4.5833 -2.5313 -2.5313 -4.5833 0 -4.5833 ZM0 -5.4167 C-2.9915 -5.4167 -5.4167 -2.9915 -5.4167 -0 C-5.4167 2.9915 -2.9915 5.4167 -0 5.4167 C2.9915 5.4167 5.4167 2.9915 5.4167 0 L5.4167 0 C5.4167 -2.9915 2.9915 -5.4167 0 -5.4167 Z" style="fill:red; stroke:none;" transform="translate(824.4052,682.4375)"
      /><line x1="647.6223" x2="1001.188" y1="682.4375" style="fill:none; stroke:red;" y2="682.4375"
      /><path d="M0 -4.5833 C2.5313 -4.5833 4.5833 -2.5313 4.5833 0 L4.5833 0 C4.5833 2.5313 2.5313 4.5833 -0 4.5833 C-2.5313 4.5833 -4.5833 2.5313 -4.5833 -0 C-4.5833 -2.5313 -2.5313 -4.5833 0 -4.5833 ZM0 -5.4167 C-2.9915 -5.4167 -5.4167 -2.9915 -5.4167 -0 C-5.4167 2.9915 -2.9915 5.4167 -0 5.4167 C2.9915 5.4167 5.4167 2.9915 5.4167 0 L5.4167 0 C5.4167 -2.9915 2.9915 -5.4167 0 -5.4167 Z" style="fill:red; stroke:none;" transform="translate(776.0117,713.8958)"
      /><line x1="599.2289" x2="952.7946" y1="713.8958" style="fill:none; stroke:red;" y2="713.8958"
      /><path d="M0 -4.5833 C2.5313 -4.5833 4.5833 -2.5313 4.5833 0 L4.5833 0 C4.5833 2.5313 2.5313 4.5833 -0 4.5833 C-2.5313 4.5833 -4.5833 2.5313 -4.5833 -0 C-4.5833 -2.5313 -2.5313 -4.5833 0 -4.5833 ZM0 -5.4167 C-2.9915 -5.4167 -5.4167 -2.9915 -5.4167 -0 C-5.4167 2.9915 -2.9915 5.4167 -0 5.4167 C2.9915 5.4167 5.4167 2.9915 5.4167 0 L5.4167 0 C5.4167 -2.9915 2.9915 -5.4167 0 -5.4167 Z" style="fill:red; stroke:none;" transform="translate(749.9977,745.3542)"
      /><line x1="573.2149" x2="926.7806" y1="745.3542" style="fill:none; stroke:red;" y2="745.3542"
      /><path d="M0 -4.5833 C2.5313 -4.5833 4.5833 -2.5313 4.5833 0 L4.5833 0 C4.5833 2.5313 2.5313 4.5833 -0 4.5833 C-2.5313 4.5833 -4.5833 2.5313 -4.5833 -0 C-4.5833 -2.5313 -2.5313 -4.5833 0 -4.5833 ZM0 -5.4167 C-2.9915 -5.4167 -5.4167 -2.9915 -5.4167 -0 C-5.4167 2.9915 -2.9915 5.4167 -0 5.4167 C2.9915 5.4167 5.4167 2.9915 5.4167 0 L5.4167 0 C5.4167 -2.9915 2.9915 -5.4167 0 -5.4167 Z" style="fill:red; stroke:none;" transform="translate(610.2188,776.8125)"
      /><line x1="433.4359" x2="787.0016" y1="776.8125" style="fill:none; stroke:red;" y2="776.8125"
      /><path d="M0 -4.5833 C2.5313 -4.5833 4.5833 -2.5313 4.5833 0 L4.5833 0 C4.5833 2.5313 2.5313 4.5833 -0 4.5833 C-2.5313 4.5833 -4.5833 2.5313 -4.5833 -0 C-4.5833 -2.5313 -2.5313 -4.5833 0 -4.5833 ZM0 -5.4167 C-2.9915 -5.4167 -5.4167 -2.9915 -5.4167 -0 C-5.4167 2.9915 -2.9915 5.4167 -0 5.4167 C2.9915 5.4167 5.4167 2.9915 5.4167 0 L5.4167 0 C5.4167 -2.9915 2.9915 -5.4167 0 -5.4167 Z" style="fill:red; stroke:none;" transform="translate(489.821,808.2708)"
      /><line x1="313.0381" x2="666.6038" y1="808.2708" style="fill:none; stroke:red;" y2="808.2708"
    /></g
  ></g
></svg
>
