2	Q0	clueweb12-0000tw-00-14115___18	1	89.074181	rf_run
2	Q0	clueweb12-0000tw-00-14115___16	2	84.599464	rf_run
2	Q0	clueweb12-0000tw-00-14115___15	3	21.370760	rf_run
2	Q0	clueweb12-0000tw-00-14115___19	4	16.473545	rf_run
2	Q0	clueweb12-0000tw-00-14115___13	5	14.347624	rf_run
2	Q0	clueweb12-0000tw-00-14115___21	6	13.364525	rf_run
2	Q0	clueweb12-0000tw-00-14115___17	7	12.429789	rf_run
2	Q0	clueweb12-0000tw-00-14115___11	8	12.326283	rf_run
2	Q0	clueweb12-0000tw-00-14115___20	9	12.095385	rf_run
2	Q0	clueweb12-0000tw-00-14115___14	10	9.121476	rf_run
2	Q0	clueweb12-0000tw-00-14115___1	11	9.100539	rf_run
2	Q0	clueweb12-0000tw-00-14115___2	12	8.653781	rf_run
2	Q0	clueweb12-0000tw-00-14115___10	13	7.706722	rf_run
2	Q0	clueweb12-0000tw-00-14115___12	14	6.635076	rf_run
