2	Q0	clueweb12-0000tw-00-14115___1	1	2.175590	seupd2122-kueri
2	Q0	clueweb12-0000tw-00-14115___16	2	1.445630	seupd2122-kueri
2	Q0	clueweb12-0000tw-00-14115___18	3	1.270102	seupd2122-kueri
2	Q0	clueweb12-0000tw-00-14115___12	4	0.846469	seupd2122-kueri
2	Q0	clueweb12-0000tw-00-14115___19	5	0.795323	seupd2122-kueri
2	Q0	clueweb12-0000tw-00-14115___2	6	0.551066	seupd2122-kueri
2	Q0	clueweb12-0000tw-00-14115___20	7	0.551066	seupd2122-kueri
3	Q0	clueweb12-0000tw-00-14115___16	1	1.445630	seupd2122-kueri
3	Q0	clueweb12-0000tw-00-14115___18	2	1.270102	seupd2122-kueri
3	Q0	clueweb12-0000tw-00-14115___12	3	0.846469	seupd2122-kueri
3	Q0	clueweb12-0000tw-00-14115___19	4	0.795323	seupd2122-kueri
3	Q0	clueweb12-0000tw-00-14115___2	5	0.551066	seupd2122-kueri
3	Q0	clueweb12-0000tw-00-14115___20	6	0.551066	seupd2122-kueri
8	Q0	clueweb12-0000tw-00-14115___18	1	1.445981	seupd2122-kueri
8	Q0	clueweb12-0000tw-00-14115___17	2	0.884184	seupd2122-kueri
8	Q0	clueweb12-0000tw-00-14115___14	3	0.844565	seupd2122-kueri
8	Q0	clueweb12-0000tw-00-14115___15	4	0.817180	seupd2122-kueri
8	Q0	clueweb12-0000tw-00-14115___20	5	0.771464	seupd2122-kueri
8	Q0	clueweb12-0000tw-00-14115___13	6	0.720507	seupd2122-kueri
8	Q0	clueweb12-0000tw-00-14115___19	7	0.514160	seupd2122-kueri
8	Q0	clueweb12-0000tw-00-14115___11	8	0.422117	seupd2122-kueri
9	Q0	clueweb12-0000tw-00-14115___12	1	2.049919	seupd2122-kueri
9	Q0	clueweb12-0000tw-00-14115___19	2	1.848403	seupd2122-kueri
9	Q0	clueweb12-0000tw-00-14115___16	3	1.139765	seupd2122-kueri
9	Q0	clueweb12-0000tw-00-14115___2	4	1.125312	seupd2122-kueri
9	Q0	clueweb12-0000tw-00-14115___21	5	1.125312	seupd2122-kueri
9	Q0	clueweb12-0000tw-00-14115___10	6	0.607735	seupd2122-kueri
9	Q0	clueweb12-0000tw-00-14115___15	7	0.473983	seupd2122-kueri
12	Q0	clueweb12-0000tw-00-14115___18	1	2.324009	seupd2122-kueri
12	Q0	clueweb12-0000tw-00-14115___16	2	1.445630	seupd2122-kueri
12	Q0	clueweb12-0000tw-00-14115___12	3	0.846469	seupd2122-kueri
12	Q0	clueweb12-0000tw-00-14115___19	4	0.795323	seupd2122-kueri
12	Q0	clueweb12-0000tw-00-14115___2	5	0.551066	seupd2122-kueri
12	Q0	clueweb12-0000tw-00-14115___20	6	0.551066	seupd2122-kueri
14	Q0	clueweb12-0000tw-00-14115___21	1	2.209126	seupd2122-kueri
14	Q0	clueweb12-0000tw-00-14115___11	2	1.138829	seupd2122-kueri
14	Q0	clueweb12-0000tw-00-14115___20	3	1.053908	seupd2122-kueri
14	Q0	clueweb12-0000tw-00-14115___17	4	0.995869	seupd2122-kueri
14	Q0	clueweb12-0000tw-00-14115___14	5	0.933822	seupd2122-kueri
14	Q0	clueweb12-0000tw-00-14115___19	6	0.371192	seupd2122-kueri
14	Q0	clueweb12-0000tw-00-14115___13	7	0.360307	seupd2122-kueri
17	Q0	clueweb12-0000tw-00-14115___16	1	1.794683	seupd2122-kueri
17	Q0	clueweb12-0000tw-00-14115___19	2	1.460087	seupd2122-kueri
17	Q0	clueweb12-0000tw-00-14115___1	3	1.436589	seupd2122-kueri
17	Q0	clueweb12-0000tw-00-14115___12	4	1.214553	seupd2122-kueri
17	Q0	clueweb12-0000tw-00-14115___10	5	1.043019	seupd2122-kueri
17	Q0	clueweb12-0000tw-00-14115___11	6	0.814160	seupd2122-kueri
17	Q0	clueweb12-0000tw-00-14115___2	7	0.666094	seupd2122-kueri
17	Q0	clueweb12-0000tw-00-14115___21	8	0.666094	seupd2122-kueri
17	Q0	clueweb12-0000tw-00-14115___13	9	0.597301	seupd2122-kueri
17	Q0	clueweb12-0000tw-00-14115___15	10	0.444789	seupd2122-kueri
17	Q0	clueweb12-0000tw-00-14115___20	11	0.317258	seupd2122-kueri
18	Q0	clueweb12-0000tw-00-14115___13	1	1.964516	seupd2122-kueri
18	Q0	clueweb12-0000tw-00-14115___12	2	1.692938	seupd2122-kueri
18	Q0	clueweb12-0000tw-00-14115___19	3	1.309483	seupd2122-kueri
18	Q0	clueweb12-0000tw-00-14115___17	4	0.884184	seupd2122-kueri
18	Q0	clueweb12-0000tw-00-14115___14	5	0.844565	seupd2122-kueri
18	Q0	clueweb12-0000tw-00-14115___15	6	0.817180	seupd2122-kueri
18	Q0	clueweb12-0000tw-00-14115___20	7	0.771464	seupd2122-kueri
18	Q0	clueweb12-0000tw-00-14115___11	8	0.422117	seupd2122-kueri
19	Q0	clueweb12-0000tw-00-14115___16	1	1.445630	seupd2122-kueri
19	Q0	clueweb12-0000tw-00-14115___18	2	1.270102	seupd2122-kueri
19	Q0	clueweb12-0000tw-00-14115___12	3	0.846469	seupd2122-kueri
19	Q0	clueweb12-0000tw-00-14115___19	4	0.795323	seupd2122-kueri
19	Q0	clueweb12-0000tw-00-14115___2	5	0.551066	seupd2122-kueri
19	Q0	clueweb12-0000tw-00-14115___20	6	0.551066	seupd2122-kueri
22	Q0	clueweb12-0000tw-00-14115___16	1	1.445630	seupd2122-kueri
22	Q0	clueweb12-0000tw-00-14115___18	2	1.270102	seupd2122-kueri
22	Q0	clueweb12-0000tw-00-14115___12	3	0.846469	seupd2122-kueri
22	Q0	clueweb12-0000tw-00-14115___19	4	0.795323	seupd2122-kueri
22	Q0	clueweb12-0000tw-00-14115___2	5	0.551066	seupd2122-kueri
22	Q0	clueweb12-0000tw-00-14115___20	6	0.551066	seupd2122-kueri
23	Q0	clueweb12-0000tw-00-14115___1	1	2.175590	seupd2122-kueri
23	Q0	clueweb12-0000tw-00-14115___19	2	1.309483	seupd2122-kueri
23	Q0	clueweb12-0000tw-00-14115___17	3	0.884184	seupd2122-kueri
23	Q0	clueweb12-0000tw-00-14115___12	4	0.846469	seupd2122-kueri
23	Q0	clueweb12-0000tw-00-14115___14	5	0.844565	seupd2122-kueri
23	Q0	clueweb12-0000tw-00-14115___15	6	0.817180	seupd2122-kueri
23	Q0	clueweb12-0000tw-00-14115___20	7	0.771464	seupd2122-kueri
23	Q0	clueweb12-0000tw-00-14115___13	8	0.720507	seupd2122-kueri
23	Q0	clueweb12-0000tw-00-14115___11	9	0.422117	seupd2122-kueri
25	Q0	clueweb12-0000tw-00-14115___16	1	1.445630	seupd2122-kueri
25	Q0	clueweb12-0000tw-00-14115___18	2	1.270102	seupd2122-kueri
25	Q0	clueweb12-0000tw-00-14115___12	3	0.846469	seupd2122-kueri
25	Q0	clueweb12-0000tw-00-14115___19	4	0.795323	seupd2122-kueri
25	Q0	clueweb12-0000tw-00-14115___2	5	0.551066	seupd2122-kueri
25	Q0	clueweb12-0000tw-00-14115___20	6	0.551066	seupd2122-kueri
26	Q0	clueweb12-0000tw-00-14115___16	1	1.445630	seupd2122-kueri
26	Q0	clueweb12-0000tw-00-14115___18	2	1.270102	seupd2122-kueri
26	Q0	clueweb12-0000tw-00-14115___12	3	0.846469	seupd2122-kueri
26	Q0	clueweb12-0000tw-00-14115___19	4	0.795323	seupd2122-kueri
26	Q0	clueweb12-0000tw-00-14115___2	5	0.551066	seupd2122-kueri
26	Q0	clueweb12-0000tw-00-14115___20	6	0.551066	seupd2122-kueri
27	Q0	clueweb12-0000tw-00-14115___16	1	1.445630	seupd2122-kueri
27	Q0	clueweb12-0000tw-00-14115___18	2	1.270102	seupd2122-kueri
27	Q0	clueweb12-0000tw-00-14115___12	3	0.846469	seupd2122-kueri
27	Q0	clueweb12-0000tw-00-14115___19	4	0.795323	seupd2122-kueri
27	Q0	clueweb12-0000tw-00-14115___11	5	0.756073	seupd2122-kueri
27	Q0	clueweb12-0000tw-00-14115___21	6	0.756073	seupd2122-kueri
27	Q0	clueweb12-0000tw-00-14115___17	7	0.587681	seupd2122-kueri
27	Q0	clueweb12-0000tw-00-14115___14	8	0.551066	seupd2122-kueri
27	Q0	clueweb12-0000tw-00-14115___2	9	0.551066	seupd2122-kueri
27	Q0	clueweb12-0000tw-00-14115___20	10	0.551066	seupd2122-kueri
28	Q0	clueweb12-0000tw-00-14115___14	1	1.664664	seupd2122-kueri
28	Q0	clueweb12-0000tw-00-14115___11	2	1.584404	seupd2122-kueri
28	Q0	clueweb12-0000tw-00-14115___17	3	0.884184	seupd2122-kueri
28	Q0	clueweb12-0000tw-00-14115___10	4	0.820099	seupd2122-kueri
28	Q0	clueweb12-0000tw-00-14115___15	5	0.817180	seupd2122-kueri
28	Q0	clueweb12-0000tw-00-14115___20	6	0.771464	seupd2122-kueri
28	Q0	clueweb12-0000tw-00-14115___13	7	0.720507	seupd2122-kueri
28	Q0	clueweb12-0000tw-00-14115___19	8	0.514160	seupd2122-kueri
30	Q0	clueweb12-0000tw-00-14115___21	1	2.098206	seupd2122-kueri
30	Q0	clueweb12-0000tw-00-14115___11	2	0.907904	seupd2122-kueri
30	Q0	clueweb12-0000tw-00-14115___14	3	0.907904	seupd2122-kueri
30	Q0	clueweb12-0000tw-00-14115___20	4	0.525148	seupd2122-kueri
30	Q0	clueweb12-0000tw-00-14115___17	5	0.408188	seupd2122-kueri
30	Q0	clueweb12-0000tw-00-14115___12	6	0.395063	seupd2122-kueri
30	Q0	clueweb12-0000tw-00-14115___10	7	0.382756	seupd2122-kueri
30	Q0	clueweb12-0000tw-00-14115___19	8	0.371192	seupd2122-kueri
30	Q0	clueweb12-0000tw-00-14115___13	9	0.360307	seupd2122-kueri
33	Q0	clueweb12-0000tw-00-14115___19	1	1.309483	seupd2122-kueri
33	Q0	clueweb12-0000tw-00-14115___17	2	0.884184	seupd2122-kueri
33	Q0	clueweb12-0000tw-00-14115___12	3	0.846469	seupd2122-kueri
33	Q0	clueweb12-0000tw-00-14115___14	4	0.844565	seupd2122-kueri
33	Q0	clueweb12-0000tw-00-14115___15	5	0.817180	seupd2122-kueri
33	Q0	clueweb12-0000tw-00-14115___20	6	0.771464	seupd2122-kueri
33	Q0	clueweb12-0000tw-00-14115___13	7	0.720507	seupd2122-kueri
33	Q0	clueweb12-0000tw-00-14115___11	8	0.422117	seupd2122-kueri
34	Q0	clueweb12-0000tw-00-14115___19	1	1.309483	seupd2122-kueri
34	Q0	clueweb12-0000tw-00-14115___11	2	1.242216	seupd2122-kueri
34	Q0	clueweb12-0000tw-00-14115___2	3	1.053908	seupd2122-kueri
34	Q0	clueweb12-0000tw-00-14115___17	4	0.884184	seupd2122-kueri
34	Q0	clueweb12-0000tw-00-14115___1	5	0.846469	seupd2122-kueri
34	Q0	clueweb12-0000tw-00-14115___12	6	0.846469	seupd2122-kueri
34	Q0	clueweb12-0000tw-00-14115___14	7	0.844565	seupd2122-kueri
34	Q0	clueweb12-0000tw-00-14115___15	8	0.817180	seupd2122-kueri
34	Q0	clueweb12-0000tw-00-14115___20	9	0.771464	seupd2122-kueri
34	Q0	clueweb12-0000tw-00-14115___13	10	0.720507	seupd2122-kueri
36	Q0	clueweb12-0000tw-00-14115___19	1	1.309483	seupd2122-kueri
36	Q0	clueweb12-0000tw-00-14115___17	2	0.884184	seupd2122-kueri
36	Q0	clueweb12-0000tw-00-14115___12	3	0.846469	seupd2122-kueri
36	Q0	clueweb12-0000tw-00-14115___14	4	0.844565	seupd2122-kueri
36	Q0	clueweb12-0000tw-00-14115___15	5	0.817180	seupd2122-kueri
36	Q0	clueweb12-0000tw-00-14115___20	6	0.771464	seupd2122-kueri
36	Q0	clueweb12-0000tw-00-14115___13	7	0.720507	seupd2122-kueri
36	Q0	clueweb12-0000tw-00-14115___11	8	0.422117	seupd2122-kueri
37	Q0	clueweb12-0000tw-00-14115___12	1	1.490283	seupd2122-kueri
37	Q0	clueweb12-0000tw-00-14115___19	2	1.240667	seupd2122-kueri
37	Q0	clueweb12-0000tw-00-14115___20	3	1.053908	seupd2122-kueri
37	Q0	clueweb12-0000tw-00-14115___15	4	0.473983	seupd2122-kueri
37	Q0	clueweb12-0000tw-00-14115___2	5	0.459218	seupd2122-kueri
37	Q0	clueweb12-0000tw-00-14115___21	6	0.459218	seupd2122-kueri
42	Q0	clueweb12-0000tw-00-14115___16	1	1.445630	seupd2122-kueri
42	Q0	clueweb12-0000tw-00-14115___18	2	1.270102	seupd2122-kueri
42	Q0	clueweb12-0000tw-00-14115___12	3	0.846469	seupd2122-kueri
42	Q0	clueweb12-0000tw-00-14115___19	4	0.795323	seupd2122-kueri
42	Q0	clueweb12-0000tw-00-14115___2	5	0.551066	seupd2122-kueri
42	Q0	clueweb12-0000tw-00-14115___20	6	0.551066	seupd2122-kueri
43	Q0	clueweb12-0000tw-00-14115___21	1	2.098206	seupd2122-kueri
43	Q0	clueweb12-0000tw-00-14115___18	2	1.445981	seupd2122-kueri
43	Q0	clueweb12-0000tw-00-14115___11	3	0.907904	seupd2122-kueri
43	Q0	clueweb12-0000tw-00-14115___14	4	0.907904	seupd2122-kueri
43	Q0	clueweb12-0000tw-00-14115___20	5	0.525148	seupd2122-kueri
43	Q0	clueweb12-0000tw-00-14115___17	6	0.408188	seupd2122-kueri
43	Q0	clueweb12-0000tw-00-14115___12	7	0.395063	seupd2122-kueri
43	Q0	clueweb12-0000tw-00-14115___10	8	0.382756	seupd2122-kueri
43	Q0	clueweb12-0000tw-00-14115___19	9	0.371192	seupd2122-kueri
43	Q0	clueweb12-0000tw-00-14115___13	10	0.360307	seupd2122-kueri
48	Q0	clueweb12-0000tw-00-14115___12	1	0.643814	seupd2122-kueri
48	Q0	clueweb12-0000tw-00-14115___15	2	0.473983	seupd2122-kueri
48	Q0	clueweb12-0000tw-00-14115___2	3	0.459218	seupd2122-kueri
48	Q0	clueweb12-0000tw-00-14115___21	4	0.459218	seupd2122-kueri
48	Q0	clueweb12-0000tw-00-14115___19	5	0.445344	seupd2122-kueri
51	Q0	clueweb12-0000tw-00-14115___14	1	1.898472	seupd2122-kueri
51	Q0	clueweb12-0000tw-00-14115___19	2	1.309483	seupd2122-kueri
51	Q0	clueweb12-0000tw-00-14115___17	3	0.884184	seupd2122-kueri
51	Q0	clueweb12-0000tw-00-14115___12	4	0.846469	seupd2122-kueri
51	Q0	clueweb12-0000tw-00-14115___15	5	0.817180	seupd2122-kueri
51	Q0	clueweb12-0000tw-00-14115___20	6	0.771464	seupd2122-kueri
51	Q0	clueweb12-0000tw-00-14115___13	7	0.720507	seupd2122-kueri
51	Q0	clueweb12-0000tw-00-14115___11	8	0.422117	seupd2122-kueri
53	Q0	clueweb12-0000tw-00-14115___21	1	2.098206	seupd2122-kueri
53	Q0	clueweb12-0000tw-00-14115___11	2	0.907904	seupd2122-kueri
53	Q0	clueweb12-0000tw-00-14115___14	3	0.907904	seupd2122-kueri
53	Q0	clueweb12-0000tw-00-14115___20	4	0.525148	seupd2122-kueri
53	Q0	clueweb12-0000tw-00-14115___17	5	0.408188	seupd2122-kueri
53	Q0	clueweb12-0000tw-00-14115___12	6	0.395063	seupd2122-kueri
53	Q0	clueweb12-0000tw-00-14115___10	7	0.382756	seupd2122-kueri
53	Q0	clueweb12-0000tw-00-14115___19	8	0.371192	seupd2122-kueri
53	Q0	clueweb12-0000tw-00-14115___13	9	0.360307	seupd2122-kueri
54	Q0	clueweb12-0000tw-00-14115___11	1	1.162287	seupd2122-kueri
54	Q0	clueweb12-0000tw-00-14115___10	2	0.820099	seupd2122-kueri
54	Q0	clueweb12-0000tw-00-14115___14	3	0.820099	seupd2122-kueri
55	Q0	clueweb12-0000tw-00-14115___19	1	1.309483	seupd2122-kueri
55	Q0	clueweb12-0000tw-00-14115___18	2	1.053908	seupd2122-kueri
55	Q0	clueweb12-0000tw-00-14115___17	3	0.884184	seupd2122-kueri
55	Q0	clueweb12-0000tw-00-14115___12	4	0.846469	seupd2122-kueri
55	Q0	clueweb12-0000tw-00-14115___14	5	0.844565	seupd2122-kueri
55	Q0	clueweb12-0000tw-00-14115___15	6	0.817180	seupd2122-kueri
55	Q0	clueweb12-0000tw-00-14115___20	7	0.771464	seupd2122-kueri
55	Q0	clueweb12-0000tw-00-14115___13	8	0.720507	seupd2122-kueri
55	Q0	clueweb12-0000tw-00-14115___11	9	0.422117	seupd2122-kueri
56	Q0	clueweb12-0000tw-00-14115___12	1	0.846469	seupd2122-kueri
56	Q0	clueweb12-0000tw-00-14115___19	2	0.795323	seupd2122-kueri
58	Q0	clueweb12-0000tw-00-14115___16	1	1.445630	seupd2122-kueri
58	Q0	clueweb12-0000tw-00-14115___18	2	1.270102	seupd2122-kueri
58	Q0	clueweb12-0000tw-00-14115___12	3	0.846469	seupd2122-kueri
58	Q0	clueweb12-0000tw-00-14115___19	4	0.795323	seupd2122-kueri
58	Q0	clueweb12-0000tw-00-14115___2	5	0.551066	seupd2122-kueri
58	Q0	clueweb12-0000tw-00-14115___20	6	0.551066	seupd2122-kueri
59	Q0	clueweb12-0000tw-00-14115___12	1	3.307855	seupd2122-kueri
59	Q0	clueweb12-0000tw-00-14115___16	2	1.445630	seupd2122-kueri
59	Q0	clueweb12-0000tw-00-14115___18	3	1.270102	seupd2122-kueri
59	Q0	clueweb12-0000tw-00-14115___15	4	0.846469	seupd2122-kueri
59	Q0	clueweb12-0000tw-00-14115___2	5	0.551066	seupd2122-kueri
59	Q0	clueweb12-0000tw-00-14115___20	6	0.551066	seupd2122-kueri
60	Q0	clueweb12-0000tw-00-14115___12	1	2.049919	seupd2122-kueri
60	Q0	clueweb12-0000tw-00-14115___19	2	1.848403	seupd2122-kueri
60	Q0	clueweb12-0000tw-00-14115___16	3	1.139765	seupd2122-kueri
60	Q0	clueweb12-0000tw-00-14115___2	4	1.125312	seupd2122-kueri
60	Q0	clueweb12-0000tw-00-14115___21	5	1.125312	seupd2122-kueri
60	Q0	clueweb12-0000tw-00-14115___10	6	0.607735	seupd2122-kueri
60	Q0	clueweb12-0000tw-00-14115___15	7	0.473983	seupd2122-kueri
61	Q0	clueweb12-0000tw-00-14115___10	1	1.604973	seupd2122-kueri
61	Q0	clueweb12-0000tw-00-14115___19	2	0.740253	seupd2122-kueri
61	Q0	clueweb12-0000tw-00-14115___15	3	0.568785	seupd2122-kueri
61	Q0	clueweb12-0000tw-00-14115___2	4	0.551066	seupd2122-kueri
62	Q0	clueweb12-0000tw-00-14115___16	1	1.445630	seupd2122-kueri
62	Q0	clueweb12-0000tw-00-14115___18	2	1.270102	seupd2122-kueri
62	Q0	clueweb12-0000tw-00-14115___1	3	1.087795	seupd2122-kueri
62	Q0	clueweb12-0000tw-00-14115___12	4	0.846469	seupd2122-kueri
62	Q0	clueweb12-0000tw-00-14115___19	5	0.795323	seupd2122-kueri
62	Q0	clueweb12-0000tw-00-14115___2	6	0.551066	seupd2122-kueri
62	Q0	clueweb12-0000tw-00-14115___20	7	0.551066	seupd2122-kueri
67	Q0	clueweb12-0000tw-00-14115___21	1	2.098206	seupd2122-kueri
67	Q0	clueweb12-0000tw-00-14115___10	2	1.436663	seupd2122-kueri
67	Q0	clueweb12-0000tw-00-14115___11	3	0.907904	seupd2122-kueri
67	Q0	clueweb12-0000tw-00-14115___14	4	0.907904	seupd2122-kueri
67	Q0	clueweb12-0000tw-00-14115___20	5	0.525148	seupd2122-kueri
67	Q0	clueweb12-0000tw-00-14115___17	6	0.408188	seupd2122-kueri
67	Q0	clueweb12-0000tw-00-14115___12	7	0.395063	seupd2122-kueri
67	Q0	clueweb12-0000tw-00-14115___19	8	0.371192	seupd2122-kueri
67	Q0	clueweb12-0000tw-00-14115___13	9	0.360307	seupd2122-kueri
68	Q0	clueweb12-0000tw-00-14115___12	1	1.490283	seupd2122-kueri
68	Q0	clueweb12-0000tw-00-14115___19	2	1.240667	seupd2122-kueri
68	Q0	clueweb12-0000tw-00-14115___15	3	0.473983	seupd2122-kueri
68	Q0	clueweb12-0000tw-00-14115___2	4	0.459218	seupd2122-kueri
68	Q0	clueweb12-0000tw-00-14115___21	5	0.459218	seupd2122-kueri
69	Q0	clueweb12-0000tw-00-14115___19	1	1.535576	seupd2122-kueri
69	Q0	clueweb12-0000tw-00-14115___12	2	0.846469	seupd2122-kueri
69	Q0	clueweb12-0000tw-00-14115___15	3	0.568785	seupd2122-kueri
69	Q0	clueweb12-0000tw-00-14115___10	4	0.551066	seupd2122-kueri
69	Q0	clueweb12-0000tw-00-14115___2	5	0.551066	seupd2122-kueri
70	Q0	clueweb12-0000tw-00-14115___16	1	1.445630	seupd2122-kueri
70	Q0	clueweb12-0000tw-00-14115___18	2	1.270102	seupd2122-kueri
70	Q0	clueweb12-0000tw-00-14115___1	3	1.087795	seupd2122-kueri
70	Q0	clueweb12-0000tw-00-14115___12	4	0.846469	seupd2122-kueri
70	Q0	clueweb12-0000tw-00-14115___19	5	0.795323	seupd2122-kueri
70	Q0	clueweb12-0000tw-00-14115___2	6	0.551066	seupd2122-kueri
70	Q0	clueweb12-0000tw-00-14115___20	7	0.551066	seupd2122-kueri
72	Q0	clueweb12-0000tw-00-14115___19	1	2.069993	seupd2122-kueri
72	Q0	clueweb12-0000tw-00-14115___12	2	0.846469	seupd2122-kueri
72	Q0	clueweb12-0000tw-00-14115___21	3	0.756073	seupd2122-kueri
72	Q0	clueweb12-0000tw-00-14115___17	4	0.587681	seupd2122-kueri
72	Q0	clueweb12-0000tw-00-14115___15	5	0.568785	seupd2122-kueri
72	Q0	clueweb12-0000tw-00-14115___10	6	0.551066	seupd2122-kueri
72	Q0	clueweb12-0000tw-00-14115___18	7	0.551066	seupd2122-kueri
72	Q0	clueweb12-0000tw-00-14115___2	8	0.551066	seupd2122-kueri
74	Q0	clueweb12-0000tw-00-14115___16	1	1.445630	seupd2122-kueri
74	Q0	clueweb12-0000tw-00-14115___18	2	1.270102	seupd2122-kueri
74	Q0	clueweb12-0000tw-00-14115___12	3	0.846469	seupd2122-kueri
74	Q0	clueweb12-0000tw-00-14115___19	4	0.795323	seupd2122-kueri
74	Q0	clueweb12-0000tw-00-14115___2	5	0.551066	seupd2122-kueri
74	Q0	clueweb12-0000tw-00-14115___20	6	0.551066	seupd2122-kueri
76	Q0	clueweb12-0000tw-00-14115___12	1	1.490283	seupd2122-kueri
76	Q0	clueweb12-0000tw-00-14115___2	2	1.279317	seupd2122-kueri
76	Q0	clueweb12-0000tw-00-14115___21	3	1.279317	seupd2122-kueri
76	Q0	clueweb12-0000tw-00-14115___19	4	1.240667	seupd2122-kueri
76	Q0	clueweb12-0000tw-00-14115___15	5	0.473983	seupd2122-kueri
77	Q0	clueweb12-0000tw-00-14115___12	1	0.643814	seupd2122-kueri
77	Q0	clueweb12-0000tw-00-14115___15	2	0.473983	seupd2122-kueri
77	Q0	clueweb12-0000tw-00-14115___2	3	0.459218	seupd2122-kueri
77	Q0	clueweb12-0000tw-00-14115___21	4	0.459218	seupd2122-kueri
77	Q0	clueweb12-0000tw-00-14115___19	5	0.445344	seupd2122-kueri
78	Q0	clueweb12-0000tw-00-14115___16	1	1.445630	seupd2122-kueri
78	Q0	clueweb12-0000tw-00-14115___18	2	1.270102	seupd2122-kueri
78	Q0	clueweb12-0000tw-00-14115___15	3	1.087795	seupd2122-kueri
78	Q0	clueweb12-0000tw-00-14115___12	4	0.846469	seupd2122-kueri
78	Q0	clueweb12-0000tw-00-14115___19	5	0.795323	seupd2122-kueri
78	Q0	clueweb12-0000tw-00-14115___2	6	0.551066	seupd2122-kueri
78	Q0	clueweb12-0000tw-00-14115___20	7	0.551066	seupd2122-kueri
84	Q0	clueweb12-0000tw-00-14115___19	1	1.309483	seupd2122-kueri
84	Q0	clueweb12-0000tw-00-14115___17	2	0.884184	seupd2122-kueri
84	Q0	clueweb12-0000tw-00-14115___12	3	0.846469	seupd2122-kueri
84	Q0	clueweb12-0000tw-00-14115___14	4	0.844565	seupd2122-kueri
84	Q0	clueweb12-0000tw-00-14115___15	5	0.817180	seupd2122-kueri
84	Q0	clueweb12-0000tw-00-14115___20	6	0.771464	seupd2122-kueri
84	Q0	clueweb12-0000tw-00-14115___13	7	0.720507	seupd2122-kueri
84	Q0	clueweb12-0000tw-00-14115___11	8	0.422117	seupd2122-kueri
86	Q0	clueweb12-0000tw-00-14115___20	1	1.742308	seupd2122-kueri
86	Q0	clueweb12-0000tw-00-14115___19	2	1.690094	seupd2122-kueri
86	Q0	clueweb12-0000tw-00-14115___21	3	1.688417	seupd2122-kueri
86	Q0	clueweb12-0000tw-00-14115___16	4	1.445630	seupd2122-kueri
86	Q0	clueweb12-0000tw-00-14115___18	5	1.270102	seupd2122-kueri
86	Q0	clueweb12-0000tw-00-14115___12	6	1.241532	seupd2122-kueri
86	Q0	clueweb12-0000tw-00-14115___2	7	0.551066	seupd2122-kueri
86	Q0	clueweb12-0000tw-00-14115___11	8	0.525148	seupd2122-kueri
86	Q0	clueweb12-0000tw-00-14115___14	9	0.525148	seupd2122-kueri
86	Q0	clueweb12-0000tw-00-14115___10	10	0.382756	seupd2122-kueri
88	Q0	clueweb12-0000tw-00-14115___21	1	2.098206	seupd2122-kueri
88	Q0	clueweb12-0000tw-00-14115___11	2	1.961812	seupd2122-kueri
88	Q0	clueweb12-0000tw-00-14115___14	3	0.907904	seupd2122-kueri
88	Q0	clueweb12-0000tw-00-14115___20	4	0.525148	seupd2122-kueri
88	Q0	clueweb12-0000tw-00-14115___17	5	0.408188	seupd2122-kueri
88	Q0	clueweb12-0000tw-00-14115___12	6	0.395063	seupd2122-kueri
88	Q0	clueweb12-0000tw-00-14115___10	7	0.382756	seupd2122-kueri
88	Q0	clueweb12-0000tw-00-14115___19	8	0.371192	seupd2122-kueri
88	Q0	clueweb12-0000tw-00-14115___13	9	0.360307	seupd2122-kueri
91	Q0	clueweb12-0000tw-00-14115___12	1	1.964266	seupd2122-kueri
91	Q0	clueweb12-0000tw-00-14115___19	2	1.240667	seupd2122-kueri
91	Q0	clueweb12-0000tw-00-14115___15	3	1.161495	seupd2122-kueri
91	Q0	clueweb12-0000tw-00-14115___16	4	1.161495	seupd2122-kueri
91	Q0	clueweb12-0000tw-00-14115___20	5	1.125312	seupd2122-kueri
91	Q0	clueweb12-0000tw-00-14115___14	6	0.459218	seupd2122-kueri
91	Q0	clueweb12-0000tw-00-14115___2	7	0.459218	seupd2122-kueri
91	Q0	clueweb12-0000tw-00-14115___21	8	0.459218	seupd2122-kueri
91	Q0	clueweb12-0000tw-00-14115___13	9	0.432284	seupd2122-kueri
92	Q0	clueweb12-0000tw-00-14115___17	1	0.884184	seupd2122-kueri
92	Q0	clueweb12-0000tw-00-14115___14	2	0.844565	seupd2122-kueri
92	Q0	clueweb12-0000tw-00-14115___15	3	0.817180	seupd2122-kueri
92	Q0	clueweb12-0000tw-00-14115___20	4	0.771464	seupd2122-kueri
92	Q0	clueweb12-0000tw-00-14115___13	5	0.720507	seupd2122-kueri
92	Q0	clueweb12-0000tw-00-14115___19	6	0.514160	seupd2122-kueri
92	Q0	clueweb12-0000tw-00-14115___11	7	0.422117	seupd2122-kueri
93	Q0	clueweb12-0000tw-00-14115___12	1	1.490283	seupd2122-kueri
93	Q0	clueweb12-0000tw-00-14115___19	2	1.240667	seupd2122-kueri
93	Q0	clueweb12-0000tw-00-14115___15	3	0.473983	seupd2122-kueri
93	Q0	clueweb12-0000tw-00-14115___2	4	0.459218	seupd2122-kueri
93	Q0	clueweb12-0000tw-00-14115___21	5	0.459218	seupd2122-kueri
95	Q0	clueweb12-0000tw-00-14115___12	1	2.220060	seupd2122-kueri
95	Q0	clueweb12-0000tw-00-14115___16	2	1.445630	seupd2122-kueri
95	Q0	clueweb12-0000tw-00-14115___18	3	1.270102	seupd2122-kueri
95	Q0	clueweb12-0000tw-00-14115___15	4	0.846469	seupd2122-kueri
95	Q0	clueweb12-0000tw-00-14115___2	5	0.551066	seupd2122-kueri
95	Q0	clueweb12-0000tw-00-14115___20	6	0.551066	seupd2122-kueri
100	Q0	clueweb12-0000tw-00-14115___21	1	2.098206	seupd2122-kueri
100	Q0	clueweb12-0000tw-00-14115___11	2	0.907904	seupd2122-kueri
100	Q0	clueweb12-0000tw-00-14115___14	3	0.907904	seupd2122-kueri
100	Q0	clueweb12-0000tw-00-14115___20	4	0.525148	seupd2122-kueri
100	Q0	clueweb12-0000tw-00-14115___17	5	0.408188	seupd2122-kueri
100	Q0	clueweb12-0000tw-00-14115___12	6	0.395063	seupd2122-kueri
100	Q0	clueweb12-0000tw-00-14115___10	7	0.382756	seupd2122-kueri
100	Q0	clueweb12-0000tw-00-14115___19	8	0.371192	seupd2122-kueri
100	Q0	clueweb12-0000tw-00-14115___13	9	0.360307	seupd2122-kueri
